%YAML 1.1
%TAG !u! tag:unity3d.com,2011:
--- !u!1 &339664323318860675
GameObject:
  m_ObjectHideFlags: 0
  m_CorrespondingSourceObject: {fileID: 0}
  m_PrefabInstance: {fileID: 0}
  m_PrefabAsset: {fileID: 0}
  serializedVersion: 6
  m_Component:
  - component: {fileID: 5206133584926634155}
  m_Layer: 0
  m_Name: Spine1
  m_TagString: Untagged
  m_Icon: {fileID: 0}
  m_NavMeshLayer: 0
  m_StaticEditorFlags: 0
  m_IsActive: 1
--- !u!4 &5206133584926634155
Transform:
  m_ObjectHideFlags: 0
  m_CorrespondingSourceObject: {fileID: 0}
  m_PrefabInstance: {fileID: 0}
  m_PrefabAsset: {fileID: 0}
  m_GameObject: {fileID: 339664323318860675}
  serializedVersion: 2
  m_LocalRotation: {x: -0.000000008381902, y: -5.871608e-14, z: 6.809251e-13, w: 1}
  m_LocalPosition: {x: -4.3437308e-13, y: 0.2883242, z: 0.0000000011920954}
  m_LocalScale: {x: 1, y: 1, z: 1}
  m_ConstrainProportionsScale: 0
  m_Children:
  - {fileID: 8212265297738809059}
  m_Father: {fileID: 9194755753543043402}
  m_LocalEulerAnglesHint: {x: 0, y: 0, z: 0}
--- !u!1 &345760657671015856
GameObject:
  m_ObjectHideFlags: 0
  m_CorrespondingSourceObject: {fileID: 0}
  m_PrefabInstance: {fileID: 0}
  m_PrefabAsset: {fileID: 0}
  serializedVersion: 6
  m_Component:
  - component: {fileID: 2922545645862173527}
  m_Layer: 0
  m_Name: LeftHandMiddle3
  m_TagString: Untagged
  m_Icon: {fileID: 0}
  m_NavMeshLayer: 0
  m_StaticEditorFlags: 0
  m_IsActive: 1
--- !u!4 &2922545645862173527
Transform:
  m_ObjectHideFlags: 0
  m_CorrespondingSourceObject: {fileID: 0}
  m_PrefabInstance: {fileID: 0}
  m_PrefabAsset: {fileID: 0}
  m_GameObject: {fileID: 345760657671015856}
  serializedVersion: 2
  m_LocalRotation: {x: 0.0000009632447, y: -0.0000161227, z: -0.00002525407, w: 1}
  m_LocalPosition: {x: 0.000012087263, y: 0.06459762, z: -0.00000003859568}
  m_LocalScale: {x: 1, y: 0.99999994, z: 1}
  m_ConstrainProportionsScale: 0
  m_Children:
  - {fileID: 8845133679496721590}
  m_Father: {fileID: 3840293921996771007}
  m_LocalEulerAnglesHint: {x: 0, y: 0, z: 0}
--- !u!1 &522306802271073549
GameObject:
  m_ObjectHideFlags: 0
  m_CorrespondingSourceObject: {fileID: 0}
  m_PrefabInstance: {fileID: 0}
  m_PrefabAsset: {fileID: 0}
  serializedVersion: 6
  m_Component:
  - component: {fileID: 6948675661480586564}
  m_Layer: 0
  m_Name: RightHandIndex2
  m_TagString: Untagged
  m_Icon: {fileID: 0}
  m_NavMeshLayer: 0
  m_StaticEditorFlags: 0
  m_IsActive: 1
--- !u!4 &6948675661480586564
Transform:
  m_ObjectHideFlags: 0
  m_CorrespondingSourceObject: {fileID: 0}
  m_PrefabInstance: {fileID: 0}
  m_PrefabAsset: {fileID: 0}
  m_GameObject: {fileID: 522306802271073549}
  serializedVersion: 2
  m_LocalRotation: {x: 0.000000080012455, y: 0.000004366665, z: 0.00012567206, w: 1}
  m_LocalPosition: {x: -0.00007562264, y: 0.06422611, z: 0.000000104752836}
  m_LocalScale: {x: 1, y: 1, z: 1}
  m_ConstrainProportionsScale: 0
  m_Children:
  - {fileID: 2196357522098856048}
  m_Father: {fileID: 3074593275667097881}
  m_LocalEulerAnglesHint: {x: 0, y: 0, z: 0}
--- !u!1 &653320688633320502
GameObject:
  m_ObjectHideFlags: 0
  m_CorrespondingSourceObject: {fileID: 0}
  m_PrefabInstance: {fileID: 0}
  m_PrefabAsset: {fileID: 0}
  serializedVersion: 6
  m_Component:
  - component: {fileID: 2526597647388757036}
  m_Layer: 0
  m_Name: LeftHandMiddle4_end
  m_TagString: Untagged
  m_Icon: {fileID: 0}
  m_NavMeshLayer: 0
  m_StaticEditorFlags: 0
  m_IsActive: 1
--- !u!4 &2526597647388757036
Transform:
  m_ObjectHideFlags: 0
  m_CorrespondingSourceObject: {fileID: 0}
  m_PrefabInstance: {fileID: 0}
  m_PrefabAsset: {fileID: 0}
  m_GameObject: {fileID: 653320688633320502}
  serializedVersion: 2
  m_LocalRotation: {x: 0, y: -0, z: -0, w: 1}
  m_LocalPosition: {x: -0, y: 0.051708415, z: 0}
  m_LocalScale: {x: 1, y: 1, z: 1}
  m_ConstrainProportionsScale: 0
  m_Children: []
  m_Father: {fileID: 8845133679496721590}
  m_LocalEulerAnglesHint: {x: 0, y: 0, z: 0}
--- !u!1 &699304536998666501
GameObject:
  m_ObjectHideFlags: 0
  m_CorrespondingSourceObject: {fileID: 0}
  m_PrefabInstance: {fileID: 0}
  m_PrefabAsset: {fileID: 0}
  serializedVersion: 6
  m_Component:
  - component: {fileID: 8052215413501048214}
  m_Layer: 0
  m_Name: RightHandPinky3
  m_TagString: Untagged
  m_Icon: {fileID: 0}
  m_NavMeshLayer: 0
  m_StaticEditorFlags: 0
  m_IsActive: 1
--- !u!4 &8052215413501048214
Transform:
  m_ObjectHideFlags: 0
  m_CorrespondingSourceObject: {fileID: 0}
  m_PrefabInstance: {fileID: 0}
  m_PrefabAsset: {fileID: 0}
  m_GameObject: {fileID: 699304536998666501}
  serializedVersion: 2
  m_LocalRotation: {x: -0.00000044227994, y: 0.000021167789, z: -0.00021491873, w: 1}
  m_LocalPosition: {x: 0.00000133513, y: 0.04156201, z: -0.00000004875241}
  m_LocalScale: {x: 0.99999994, y: 1.0000001, z: 1}
  m_ConstrainProportionsScale: 0
  m_Children:
  - {fileID: 5342450427714671713}
  m_Father: {fileID: 8562258667841333610}
  m_LocalEulerAnglesHint: {x: 0, y: 0, z: 0}
--- !u!1 &736851541066963601
GameObject:
  m_ObjectHideFlags: 0
  m_CorrespondingSourceObject: {fileID: 0}
  m_PrefabInstance: {fileID: 0}
  m_PrefabAsset: {fileID: 0}
  serializedVersion: 6
  m_Component:
  - component: {fileID: 4873836069029021929}
  m_Layer: 0
  m_Name: LeftHandIndex3
  m_TagString: Untagged
  m_Icon: {fileID: 0}
  m_NavMeshLayer: 0
  m_StaticEditorFlags: 0
  m_IsActive: 1
--- !u!4 &4873836069029021929
Transform:
  m_ObjectHideFlags: 0
  m_CorrespondingSourceObject: {fileID: 0}
  m_PrefabInstance: {fileID: 0}
  m_PrefabAsset: {fileID: 0}
  m_GameObject: {fileID: 736851541066963601}
  serializedVersion: 2
  m_LocalRotation: {x: 0.00000021088704, y: 0.000021712496, z: 0.00046421163, w: 0.9999999}
  m_LocalPosition: {x: -0.000017882847, y: 0.0627894, z: -0.000000059477316}
  m_LocalScale: {x: 1.0000001, y: 1, z: 1}
  m_ConstrainProportionsScale: 0
  m_Children:
  - {fileID: 3574802694009920858}
  m_Father: {fileID: 1584657243651480296}
  m_LocalEulerAnglesHint: {x: 0, y: 0, z: 0}
--- !u!1 &759843851294394580
GameObject:
  m_ObjectHideFlags: 0
  m_CorrespondingSourceObject: {fileID: 0}
  m_PrefabInstance: {fileID: 0}
  m_PrefabAsset: {fileID: 0}
  serializedVersion: 6
  m_Component:
  - component: {fileID: 857371296839266856}
  m_Layer: 0
  m_Name: LeftHandThumb1
  m_TagString: Untagged
  m_Icon: {fileID: 0}
  m_NavMeshLayer: 0
  m_StaticEditorFlags: 0
  m_IsActive: 1
--- !u!4 &857371296839266856
Transform:
  m_ObjectHideFlags: 0
  m_CorrespondingSourceObject: {fileID: 0}
  m_PrefabInstance: {fileID: 0}
  m_PrefabAsset: {fileID: 0}
  m_GameObject: {fileID: 759843851294394580}
  serializedVersion: 2
  m_LocalRotation: {x: 0.2073979, y: -0.10089545, z: -0.26027066, w: 0.9375849}
  m_LocalPosition: {x: 0.06964082, y: 0.06674719, z: -0.0019189739}
  m_LocalScale: {x: 0.9999998, y: 1, z: 1}
  m_ConstrainProportionsScale: 0
  m_Children:
  - {fileID: 7628950411471437974}
  m_Father: {fileID: 3642598216678676158}
  m_LocalEulerAnglesHint: {x: 0, y: 0, z: 0}
--- !u!1 &790677362674889750
GameObject:
  m_ObjectHideFlags: 0
  m_CorrespondingSourceObject: {fileID: 0}
  m_PrefabInstance: {fileID: 0}
  m_PrefabAsset: {fileID: 0}
  serializedVersion: 6
  m_Component:
  - component: {fileID: 644651307435622912}
  m_Layer: 0
  m_Name: RightHandRing2
  m_TagString: Untagged
  m_Icon: {fileID: 0}
  m_NavMeshLayer: 0
  m_StaticEditorFlags: 0
  m_IsActive: 1
--- !u!4 &644651307435622912
Transform:
  m_ObjectHideFlags: 0
  m_CorrespondingSourceObject: {fileID: 0}
  m_PrefabInstance: {fileID: 0}
  m_PrefabAsset: {fileID: 0}
  m_GameObject: {fileID: 790677362674889750}
  serializedVersion: 2
  m_LocalRotation: {x: -0.0000003417734, y: 0.00000909846, z: 0.00002542401, w: 1}
  m_LocalPosition: {x: -0.000028410852, y: 0.062201425, z: -0.000000007441267}
  m_LocalScale: {x: 0.9999999, y: 0.9999997, z: 0.99999994}
  m_ConstrainProportionsScale: 0
  m_Children:
  - {fileID: 4763578508522590620}
  m_Father: {fileID: 2770804423480782706}
  m_LocalEulerAnglesHint: {x: 0, y: 0, z: 0}
--- !u!1 &790790600331207202
GameObject:
  m_ObjectHideFlags: 0
  m_CorrespondingSourceObject: {fileID: 0}
  m_PrefabInstance: {fileID: 0}
  m_PrefabAsset: {fileID: 0}
  serializedVersion: 6
  m_Component:
  - component: {fileID: 3764804433698073080}
  m_Layer: 0
  m_Name: LeftShoulder
  m_TagString: Untagged
  m_Icon: {fileID: 0}
  m_NavMeshLayer: 0
  m_StaticEditorFlags: 0
  m_IsActive: 1
--- !u!4 &3764804433698073080
Transform:
  m_ObjectHideFlags: 0
  m_CorrespondingSourceObject: {fileID: 0}
  m_PrefabInstance: {fileID: 0}
  m_PrefabAsset: {fileID: 0}
  m_GameObject: {fileID: 790790600331207202}
  serializedVersion: 2
  m_LocalRotation: {x: 0.55614763, y: -0.43467414, z: 0.5635691, w: 0.42912474}
  m_LocalPosition: {x: -0.14568385, y: 0.33032683, z: -0.001971233}
  m_LocalScale: {x: 1.0000001, y: 0.99999994, z: 0.9999999}
  m_ConstrainProportionsScale: 0
  m_Children:
  - {fileID: 7812904174132984422}
  m_Father: {fileID: 8212265297738809059}
  m_LocalEulerAnglesHint: {x: 0, y: 0, z: 0}
--- !u!1 &906678510837769021
GameObject:
  m_ObjectHideFlags: 0
  m_CorrespondingSourceObject: {fileID: 0}
  m_PrefabInstance: {fileID: 0}
  m_PrefabAsset: {fileID: 0}
  serializedVersion: 6
  m_Component:
  - component: {fileID: 2984917625692832915}
  m_Layer: 0
  m_Name: LeftFoot
  m_TagString: Untagged
  m_Icon: {fileID: 0}
  m_NavMeshLayer: 0
  m_StaticEditorFlags: 0
  m_IsActive: 1
--- !u!4 &2984917625692832915
Transform:
  m_ObjectHideFlags: 0
  m_CorrespondingSourceObject: {fileID: 0}
  m_PrefabInstance: {fileID: 0}
  m_PrefabAsset: {fileID: 0}
  m_GameObject: {fileID: 906678510837769021}
  serializedVersion: 2
  m_LocalRotation: {x: 0.58823556, y: -0.044638734, z: -0.024319412, w: 0.8070904}
  m_LocalPosition: {x: 0.000000019539147, y: 0.5156409, z: -2.2351741e-10}
  m_LocalScale: {x: 0.9999999, y: 1, z: 1}
  m_ConstrainProportionsScale: 0
  m_Children:
  - {fileID: 8162836850509416647}
  m_Father: {fileID: 3780163385479130285}
  m_LocalEulerAnglesHint: {x: 0, y: 0, z: 0}
--- !u!1 &921573012192442266
GameObject:
  m_ObjectHideFlags: 0
  m_CorrespondingSourceObject: {fileID: 0}
  m_PrefabInstance: {fileID: 0}
  m_PrefabAsset: {fileID: 0}
  serializedVersion: 6
  m_Component:
  - component: {fileID: 3082353819072236532}
  m_Layer: 0
  m_Name: RightUpLeg
  m_TagString: Untagged
  m_Icon: {fileID: 0}
  m_NavMeshLayer: 0
  m_StaticEditorFlags: 0
  m_IsActive: 1
--- !u!4 &3082353819072236532
Transform:
  m_ObjectHideFlags: 0
  m_CorrespondingSourceObject: {fileID: 0}
  m_PrefabInstance: {fileID: 0}
  m_PrefabAsset: {fileID: 0}
  m_GameObject: {fileID: 921573012192442266}
  serializedVersion: 2
  m_LocalRotation: {x: -0.0015131811, y: 0.00838866, z: 0.99988294, w: -0.012710225}
  m_LocalPosition: {x: 0.22154348, y: -0.13727464, z: -0.0033032426}
  m_LocalScale: {x: 0.99999005, y: 1, z: 0.9999991}
  m_ConstrainProportionsScale: 0
  m_Children:
  - {fileID: 7799214775394463656}
  m_Father: {fileID: 5525267034130997601}
  m_LocalEulerAnglesHint: {x: 0, y: 0, z: 0}
--- !u!1 &1041733326856927941
GameObject:
  m_ObjectHideFlags: 0
  m_CorrespondingSourceObject: {fileID: 0}
  m_PrefabInstance: {fileID: 0}
  m_PrefabAsset: {fileID: 0}
  serializedVersion: 6
  m_Component:
  - component: {fileID: 7312274710295833548}
  m_Layer: 0
  m_Name: RightHandRing4
  m_TagString: Untagged
  m_Icon: {fileID: 0}
  m_NavMeshLayer: 0
  m_StaticEditorFlags: 0
  m_IsActive: 1
--- !u!4 &7312274710295833548
Transform:
  m_ObjectHideFlags: 0
  m_CorrespondingSourceObject: {fileID: 0}
  m_PrefabInstance: {fileID: 0}
  m_PrefabAsset: {fileID: 0}
  m_GameObject: {fileID: 1041733326856927941}
  serializedVersion: 2
  m_LocalRotation: {x: -0.0000000072730018, y: 0.000000011898502, z: 0.000000020475284, w: 1}
  m_LocalPosition: {x: 0.000051798073, y: 0.047704604, z: -0.00000008266419}
  m_LocalScale: {x: 1, y: 1.0000001, z: 0.9999999}
  m_ConstrainProportionsScale: 0
  m_Children:
  - {fileID: 7289910711317840664}
  m_Father: {fileID: 4763578508522590620}
  m_LocalEulerAnglesHint: {x: 0, y: 0, z: 0}
--- !u!1 &1259275916576131753
GameObject:
  m_ObjectHideFlags: 0
  m_CorrespondingSourceObject: {fileID: 0}
  m_PrefabInstance: {fileID: 0}
  m_PrefabAsset: {fileID: 0}
  serializedVersion: 6
  m_Component:
  - component: {fileID: 102917261531301520}
  m_Layer: 0
  m_Name: RightHandPinky4_end
  m_TagString: Untagged
  m_Icon: {fileID: 0}
  m_NavMeshLayer: 0
  m_StaticEditorFlags: 0
  m_IsActive: 1
--- !u!4 &102917261531301520
Transform:
  m_ObjectHideFlags: 0
  m_CorrespondingSourceObject: {fileID: 0}
  m_PrefabInstance: {fileID: 0}
  m_PrefabAsset: {fileID: 0}
  m_GameObject: {fileID: 1259275916576131753}
  serializedVersion: 2
  m_LocalRotation: {x: 0, y: -0, z: -0, w: 1}
  m_LocalPosition: {x: -0, y: 0.032053504, z: 0}
  m_LocalScale: {x: 1, y: 1, z: 1}
  m_ConstrainProportionsScale: 0
  m_Children: []
  m_Father: {fileID: 5342450427714671713}
  m_LocalEulerAnglesHint: {x: 0, y: 0, z: 0}
--- !u!1 &1326643689824936093
GameObject:
  m_ObjectHideFlags: 0
  m_CorrespondingSourceObject: {fileID: 0}
  m_PrefabInstance: {fileID: 0}
  m_PrefabAsset: {fileID: 0}
  serializedVersion: 6
  m_Component:
  - component: {fileID: 5119628482088361201}
  - component: {fileID: 2867212346775696677}
  m_Layer: 0
  m_Name: Character
  m_TagString: Untagged
  m_Icon: {fileID: 0}
  m_NavMeshLayer: 0
  m_StaticEditorFlags: 0
  m_IsActive: 1
--- !u!4 &5119628482088361201
Transform:
  m_ObjectHideFlags: 0
  m_CorrespondingSourceObject: {fileID: 0}
  m_PrefabInstance: {fileID: 0}
  m_PrefabAsset: {fileID: 0}
  m_GameObject: {fileID: 1326643689824936093}
  serializedVersion: 2
  m_LocalRotation: {x: 0.7071068, y: -0.000000002109401, z: 5.86516e-10, w: 0.7071067}
  m_LocalPosition: {x: 0.0000000047683715, y: -2.9802297e-10, z: -0.0000000013364478}
  m_LocalScale: {x: 0.01, y: 0.01, z: 0.009999998}
  m_ConstrainProportionsScale: 0
  m_Children: []
  m_Father: {fileID: 8703413484866441772}
  m_LocalEulerAnglesHint: {x: 0, y: 0, z: 0}
--- !u!137 &2867212346775696677
SkinnedMeshRenderer:
  m_ObjectHideFlags: 0
  m_CorrespondingSourceObject: {fileID: 0}
  m_PrefabInstance: {fileID: 0}
  m_PrefabAsset: {fileID: 0}
  m_GameObject: {fileID: 1326643689824936093}
  m_Enabled: 1
  m_CastShadows: 1
  m_ReceiveShadows: 1
  m_DynamicOccludee: 1
  m_StaticShadowCaster: 0
  m_MotionVectors: 1
  m_LightProbeUsage: 1
  m_ReflectionProbeUsage: 1
  m_RayTracingMode: 3
  m_RayTraceProcedural: 0
  m_RenderingLayerMask: 1
  m_RendererPriority: 0
  m_Materials:
  - {fileID: 2100000, guid: 37f6354679f3e1748b76a9221f51f4ac, type: 2}
  m_StaticBatchInfo:
    firstSubMesh: 0
    subMeshCount: 0
  m_StaticBatchRoot: {fileID: 0}
  m_ProbeAnchor: {fileID: 0}
  m_LightProbeVolumeOverride: {fileID: 0}
  m_ScaleInLightmap: 1
  m_ReceiveGI: 1
  m_PreserveUVs: 0
  m_IgnoreNormalsForChartDetection: 0
  m_ImportantGI: 0
  m_StitchLightmapSeams: 1
  m_SelectedEditorRenderState: 3
  m_MinimumChartSize: 4
  m_AutoUVMaxDistance: 0.5
  m_AutoUVMaxAngle: 89
  m_LightmapParameters: {fileID: 0}
  m_SortingLayerID: 0
  m_SortingLayer: 0
  m_SortingOrder: 0
  serializedVersion: 2
  m_Quality: 0
  m_UpdateWhenOffscreen: 0
  m_SkinnedMotionVectors: 1
  m_Mesh: {fileID: 6622264641530768373, guid: 2d226e59912d0014fbf2646ed5c4b916, type: 3}
  m_Bones:
  - {fileID: 5525267034130997601}
  - {fileID: 9194755753543043402}
  - {fileID: 5206133584926634155}
  - {fileID: 8212265297738809059}
  - {fileID: 7850902064473741956}
  - {fileID: 800706441381344363}
  - {fileID: 3764804433698073080}
  - {fileID: 7812904174132984422}
  - {fileID: 5158134851403621196}
  - {fileID: 3642598216678676158}
  - {fileID: 857371296839266856}
  - {fileID: 7628950411471437974}
  - {fileID: 2951159179084323893}
  - {fileID: 2667915150602852727}
  - {fileID: 3750887957434597730}
  - {fileID: 1584657243651480296}
  - {fileID: 4873836069029021929}
  - {fileID: 3574802694009920858}
  - {fileID: 3395971414792663118}
  - {fileID: 3840293921996771007}
  - {fileID: 2922545645862173527}
  - {fileID: 8845133679496721590}
  - {fileID: 5658767787730389988}
  - {fileID: 6296246777754780678}
  - {fileID: 3729379650512242067}
  - {fileID: 5011835719432790193}
  - {fileID: 5635157930548679370}
  - {fileID: 5072812256645469067}
  - {fileID: 539487513290490558}
  - {fileID: 7159844699236170617}
  - {fileID: 2321687145592697401}
  - {fileID: 4725826864795375917}
  - {fileID: 27893225390202865}
  - {fileID: 668614690749546428}
  - {fileID: 7534102800640064908}
  - {fileID: 3433680506655300509}
  - {fileID: 486288827801925930}
  - {fileID: 7162026533156904852}
  - {fileID: 3074593275667097881}
  - {fileID: 6948675661480586564}
  - {fileID: 2196357522098856048}
  - {fileID: 3805027261472212991}
  - {fileID: 2243745219765718476}
  - {fileID: 4391270252992242276}
  - {fileID: 3815099188393395504}
  - {fileID: 1485247588464446640}
  - {fileID: 2770804423480782706}
  - {fileID: 644651307435622912}
  - {fileID: 4763578508522590620}
  - {fileID: 7312274710295833548}
  - {fileID: 8944771123585873871}
  - {fileID: 8562258667841333610}
  - {fileID: 8052215413501048214}
  - {fileID: 5342450427714671713}
  - {fileID: 6633032826763670571}
  - {fileID: 3780163385479130285}
  - {fileID: 2984917625692832915}
  - {fileID: 8162836850509416647}
  - {fileID: 6648785346304879476}
  - {fileID: 3082353819072236532}
  - {fileID: 7799214775394463656}
  - {fileID: 451890390913213787}
  - {fileID: 8462867937776310992}
  - {fileID: 7511601353257756877}
  m_BlendShapeWeights: []
  m_RootBone: {fileID: 5525267034130997601}
  m_AABB:
    m_Center: {x: 0.0003992319, y: -0.023062944, z: 0.051378682}
    m_Extent: {x: 1.8127879, y: 1.4655969, z: 0.3513236}
  m_DirtyAABB: 0
--- !u!1 &1473698782784251312
GameObject:
  m_ObjectHideFlags: 0
  m_CorrespondingSourceObject: {fileID: 0}
  m_PrefabInstance: {fileID: 0}
  m_PrefabAsset: {fileID: 0}
  serializedVersion: 6
  m_Component:
  - component: {fileID: 1485247588464446640}
  m_Layer: 0
  m_Name: RightHandMiddle4
  m_TagString: Untagged
  m_Icon: {fileID: 0}
  m_NavMeshLayer: 0
  m_StaticEditorFlags: 0
  m_IsActive: 1
--- !u!4 &1485247588464446640
Transform:
  m_ObjectHideFlags: 0
  m_CorrespondingSourceObject: {fileID: 0}
  m_PrefabInstance: {fileID: 0}
  m_PrefabAsset: {fileID: 0}
  m_GameObject: {fileID: 1473698782784251312}
  serializedVersion: 2
  m_LocalRotation: {x: -0.000000004659113, y: 0.0000000020738338, z: 0.000000013398626, w: 1}
  m_LocalPosition: {x: -0.000045779645, y: 0.05308875, z: -0.00000021934974}
  m_LocalScale: {x: 1, y: 1, z: 1.0000002}
  m_ConstrainProportionsScale: 0
  m_Children:
  - {fileID: 648342789709412707}
  m_Father: {fileID: 3815099188393395504}
  m_LocalEulerAnglesHint: {x: 0, y: 0, z: 0}
--- !u!1 &1501767647747346658
GameObject:
  m_ObjectHideFlags: 0
  m_CorrespondingSourceObject: {fileID: 0}
  m_PrefabInstance: {fileID: 0}
  m_PrefabAsset: {fileID: 0}
  serializedVersion: 6
  m_Component:
  - component: {fileID: 3642598216678676158}
  m_Layer: 0
  m_Name: LeftHand
  m_TagString: Untagged
  m_Icon: {fileID: 0}
  m_NavMeshLayer: 0
  m_StaticEditorFlags: 0
  m_IsActive: 1
--- !u!4 &3642598216678676158
Transform:
  m_ObjectHideFlags: 0
  m_CorrespondingSourceObject: {fileID: 0}
  m_PrefabInstance: {fileID: 0}
  m_PrefabAsset: {fileID: 0}
  m_GameObject: {fileID: 1501767647747346658}
  serializedVersion: 2
  m_LocalRotation: {x: 0.00021923822, y: -0.005591471, z: 0.05338802, w: 0.99855816}
  m_LocalPosition: {x: 4.4761692e-10, y: 0.44505018, z: 0.000000020151491}
  m_LocalScale: {x: 0.9999999, y: 0.9999999, z: 1.0000001}
  m_ConstrainProportionsScale: 0
  m_Children:
  - {fileID: 3750887957434597730}
  - {fileID: 3395971414792663118}
  - {fileID: 5635157930548679370}
  - {fileID: 5658767787730389988}
  - {fileID: 857371296839266856}
  m_Father: {fileID: 5158134851403621196}
  m_LocalEulerAnglesHint: {x: 0, y: 0, z: 0}
--- !u!1 &1738436930210355436
GameObject:
  m_ObjectHideFlags: 0
  m_CorrespondingSourceObject: {fileID: 0}
  m_PrefabInstance: {fileID: 0}
  m_PrefabAsset: {fileID: 0}
  serializedVersion: 6
  m_Component:
  - component: {fileID: 6648785346304879476}
  m_Layer: 0
  m_Name: LeftToe_End
  m_TagString: Untagged
  m_Icon: {fileID: 0}
  m_NavMeshLayer: 0
  m_StaticEditorFlags: 0
  m_IsActive: 1
--- !u!4 &6648785346304879476
Transform:
  m_ObjectHideFlags: 0
  m_CorrespondingSourceObject: {fileID: 0}
  m_PrefabInstance: {fileID: 0}
  m_PrefabAsset: {fileID: 0}
  m_GameObject: {fileID: 1738436930210355436}
  serializedVersion: 2
  m_LocalRotation: {x: 0.00000011350492, y: -0.00000031469244, z: 0.00000032145175, w: 1}
  m_LocalPosition: {x: 0.0000000067055224, y: 0.08366397, z: 2.9802322e-10}
  m_LocalScale: {x: 1, y: 1.0000002, z: 1.0000001}
  m_ConstrainProportionsScale: 0
  m_Children:
  - {fileID: 2971699222550719750}
  m_Father: {fileID: 8162836850509416647}
  m_LocalEulerAnglesHint: {x: 0, y: 0, z: 0}
--- !u!1 &1802977958439402212
GameObject:
  m_ObjectHideFlags: 0
  m_CorrespondingSourceObject: {fileID: 0}
  m_PrefabInstance: {fileID: 0}
  m_PrefabAsset: {fileID: 0}
  serializedVersion: 6
  m_Component:
  - component: {fileID: 3574802694009920858}
  m_Layer: 0
  m_Name: LeftHandIndex4
  m_TagString: Untagged
  m_Icon: {fileID: 0}
  m_NavMeshLayer: 0
  m_StaticEditorFlags: 0
  m_IsActive: 1
--- !u!4 &3574802694009920858
Transform:
  m_ObjectHideFlags: 0
  m_CorrespondingSourceObject: {fileID: 0}
  m_PrefabInstance: {fileID: 0}
  m_PrefabAsset: {fileID: 0}
  m_GameObject: {fileID: 1802977958439402212}
  serializedVersion: 2
  m_LocalRotation: {x: -0.0000004458234, y: 0.00000010253796, z: 0.00000018442051, w: 1}
  m_LocalPosition: {x: 0.00003062047, y: 0.048313677, z: -0.00000015965212}
  m_LocalScale: {x: 1, y: 1, z: 1.0000001}
  m_ConstrainProportionsScale: 0
  m_Children:
  - {fileID: 7651800951698831222}
  m_Father: {fileID: 4873836069029021929}
  m_LocalEulerAnglesHint: {x: 0, y: 0, z: 0}
--- !u!1 &1897216694099578655
GameObject:
  m_ObjectHideFlags: 0
  m_CorrespondingSourceObject: {fileID: 0}
  m_PrefabInstance: {fileID: 0}
  m_PrefabAsset: {fileID: 0}
  serializedVersion: 6
  m_Component:
  - component: {fileID: 7159844699236170617}
  m_Layer: 0
  m_Name: LeftHandPinky4
  m_TagString: Untagged
  m_Icon: {fileID: 0}
  m_NavMeshLayer: 0
  m_StaticEditorFlags: 0
  m_IsActive: 1
--- !u!4 &7159844699236170617
Transform:
  m_ObjectHideFlags: 0
  m_CorrespondingSourceObject: {fileID: 0}
  m_PrefabInstance: {fileID: 0}
  m_PrefabAsset: {fileID: 0}
  m_GameObject: {fileID: 1897216694099578655}
  serializedVersion: 2
  m_LocalRotation: {x: 0.00000001023042, y: 4.964364e-10, z: -0.000000021055833, w: 1}
  m_LocalPosition: {x: 0.0000064499304, y: 0.035711985, z: 0.00000023474779}
  m_LocalScale: {x: 0.9999999, y: 0.99999994, z: 0.9999999}
  m_ConstrainProportionsScale: 0
  m_Children:
  - {fileID: 3515423401319124795}
  m_Father: {fileID: 539487513290490558}
  m_LocalEulerAnglesHint: {x: 0, y: 0, z: 0}
--- !u!1 &2153216441612043979
GameObject:
  m_ObjectHideFlags: 0
  m_CorrespondingSourceObject: {fileID: 0}
  m_PrefabInstance: {fileID: 0}
  m_PrefabAsset: {fileID: 0}
  serializedVersion: 6
  m_Component:
  - component: {fileID: 3727165101371490064}
  m_Layer: 0
  m_Name: RightHandIndex4_end
  m_TagString: Untagged
  m_Icon: {fileID: 0}
  m_NavMeshLayer: 0
  m_StaticEditorFlags: 0
  m_IsActive: 1
--- !u!4 &3727165101371490064
Transform:
  m_ObjectHideFlags: 0
  m_CorrespondingSourceObject: {fileID: 0}
  m_PrefabInstance: {fileID: 0}
  m_PrefabAsset: {fileID: 0}
  m_GameObject: {fileID: 2153216441612043979}
  serializedVersion: 2
  m_LocalRotation: {x: 0, y: -0, z: -0, w: 1}
  m_LocalPosition: {x: -0, y: 0.049069, z: 0}
  m_LocalScale: {x: 1, y: 1, z: 1}
  m_ConstrainProportionsScale: 0
  m_Children: []
  m_Father: {fileID: 3805027261472212991}
  m_LocalEulerAnglesHint: {x: 0, y: 0, z: 0}
--- !u!1 &2223786738369357475
GameObject:
  m_ObjectHideFlags: 0
  m_CorrespondingSourceObject: {fileID: 0}
  m_PrefabInstance: {fileID: 0}
  m_PrefabAsset: {fileID: 0}
  serializedVersion: 6
  m_Component:
  - component: {fileID: 5158134851403621196}
  m_Layer: 0
  m_Name: LeftForeArm
  m_TagString: Untagged
  m_Icon: {fileID: 0}
  m_NavMeshLayer: 0
  m_StaticEditorFlags: 0
  m_IsActive: 1
--- !u!4 &5158134851403621196
Transform:
  m_ObjectHideFlags: 0
  m_CorrespondingSourceObject: {fileID: 0}
  m_PrefabInstance: {fileID: 0}
  m_PrefabAsset: {fileID: 0}
  m_GameObject: {fileID: 2223786738369357475}
  serializedVersion: 2
  m_LocalRotation: {x: 0.0000002572753, y: 0.0033725316, z: -0.00000021844939, w: 0.99999434}
  m_LocalPosition: {x: 6.562186e-10, y: 0.51170045, z: 0.00000006423972}
  m_LocalScale: {x: 1, y: 1, z: 0.99999994}
  m_ConstrainProportionsScale: 0
  m_Children:
  - {fileID: 3642598216678676158}
  m_Father: {fileID: 7812904174132984422}
  m_LocalEulerAnglesHint: {x: 0, y: 0, z: 0}
--- !u!1 &2226928258917828856
GameObject:
  m_ObjectHideFlags: 0
  m_CorrespondingSourceObject: {fileID: 0}
  m_PrefabInstance: {fileID: 0}
  m_PrefabAsset: {fileID: 0}
  serializedVersion: 6
  m_Component:
  - component: {fileID: 322122965361935026}
  m_Layer: 0
  m_Name: Armature
  m_TagString: Untagged
  m_Icon: {fileID: 0}
  m_NavMeshLayer: 0
  m_StaticEditorFlags: 0
  m_IsActive: 1
--- !u!4 &322122965361935026
Transform:
  m_ObjectHideFlags: 0
  m_CorrespondingSourceObject: {fileID: 0}
  m_PrefabInstance: {fileID: 0}
  m_PrefabAsset: {fileID: 0}
  m_GameObject: {fileID: 2226928258917828856}
  serializedVersion: 2
  m_LocalRotation: {x: 0.000000081460335, y: -0, z: -0, w: 1}
  m_LocalPosition: {x: -0, y: 0, z: 0}
  m_LocalScale: {x: 1, y: 1, z: 1}
  m_ConstrainProportionsScale: 0
  m_Children:
  - {fileID: 5525267034130997601}
  m_Father: {fileID: 8703413484866441772}
  m_LocalEulerAnglesHint: {x: 0, y: 0, z: 0}
--- !u!1 &2234950249879425681
GameObject:
  m_ObjectHideFlags: 0
  m_CorrespondingSourceObject: {fileID: 0}
  m_PrefabInstance: {fileID: 0}
  m_PrefabAsset: {fileID: 0}
  serializedVersion: 6
  m_Component:
  - component: {fileID: 7289910711317840664}
  m_Layer: 0
  m_Name: RightHandRing4_end
  m_TagString: Untagged
  m_Icon: {fileID: 0}
  m_NavMeshLayer: 0
  m_StaticEditorFlags: 0
  m_IsActive: 1
--- !u!4 &7289910711317840664
Transform:
  m_ObjectHideFlags: 0
  m_CorrespondingSourceObject: {fileID: 0}
  m_PrefabInstance: {fileID: 0}
  m_PrefabAsset: {fileID: 0}
  m_GameObject: {fileID: 2234950249879425681}
  serializedVersion: 2
  m_LocalRotation: {x: 0, y: -0, z: -0, w: 1}
  m_LocalPosition: {x: -0, y: 0.047704462, z: 0}
  m_LocalScale: {x: 1, y: 1, z: 1}
  m_ConstrainProportionsScale: 0
  m_Children: []
  m_Father: {fileID: 7312274710295833548}
  m_LocalEulerAnglesHint: {x: 0, y: 0, z: 0}
--- !u!1 &2544747884573273873
GameObject:
  m_ObjectHideFlags: 0
  m_CorrespondingSourceObject: {fileID: 0}
  m_PrefabInstance: {fileID: 0}
  m_PrefabAsset: {fileID: 0}
  serializedVersion: 6
  m_Component:
  - component: {fileID: 3780163385479130285}
  m_Layer: 0
  m_Name: LeftLeg
  m_TagString: Untagged
  m_Icon: {fileID: 0}
  m_NavMeshLayer: 0
  m_StaticEditorFlags: 0
  m_IsActive: 1
--- !u!4 &3780163385479130285
Transform:
  m_ObjectHideFlags: 0
  m_CorrespondingSourceObject: {fileID: 0}
  m_PrefabInstance: {fileID: 0}
  m_PrefabAsset: {fileID: 0}
  m_GameObject: {fileID: 2544747884573273873}
  serializedVersion: 2
  m_LocalRotation: {x: -0.04490673, y: -0.0006463715, z: 0.028325727, w: 0.99858934}
  m_LocalPosition: {x: 0.0000000100753095, y: 0.6245296, z: 1.4901161e-10}
  m_LocalScale: {x: 1, y: 1.0000001, z: 1.0000001}
  m_ConstrainProportionsScale: 0
  m_Children:
  - {fileID: 2984917625692832915}
  m_Father: {fileID: 6633032826763670571}
  m_LocalEulerAnglesHint: {x: 0, y: 0, z: 0}
--- !u!1 &2577903779066626304
GameObject:
  m_ObjectHideFlags: 0
  m_CorrespondingSourceObject: {fileID: 0}
  m_PrefabInstance: {fileID: 0}
  m_PrefabAsset: {fileID: 0}
  serializedVersion: 6
  m_Component:
  - component: {fileID: 196111300347383117}
  - component: {fileID: 4512135607839148185}
  m_Layer: 0
  m_Name: Helmet
  m_TagString: Untagged
  m_Icon: {fileID: 0}
  m_NavMeshLayer: 0
  m_StaticEditorFlags: 0
  m_IsActive: 1
--- !u!4 &196111300347383117
Transform:
  m_ObjectHideFlags: 0
  m_CorrespondingSourceObject: {fileID: 0}
  m_PrefabInstance: {fileID: 0}
  m_PrefabAsset: {fileID: 0}
  m_GameObject: {fileID: 2577903779066626304}
  serializedVersion: 2
  m_LocalRotation: {x: 1, y: -3.8507996e-34, z: 1.224e-41, w: -0.00000019470718}
  m_LocalPosition: {x: 0.00000023841858, y: 0, z: 0}
  m_LocalScale: {x: 0.0001, y: 0.0001, z: 0.0001}
  m_ConstrainProportionsScale: 0
  m_Children: []
  m_Father: {fileID: 8703413484866441772}
  m_LocalEulerAnglesHint: {x: 0, y: 0, z: 0}
--- !u!137 &4512135607839148185
SkinnedMeshRenderer:
  m_ObjectHideFlags: 0
  m_CorrespondingSourceObject: {fileID: 0}
  m_PrefabInstance: {fileID: 0}
  m_PrefabAsset: {fileID: 0}
  m_GameObject: {fileID: 2577903779066626304}
  m_Enabled: 1
  m_CastShadows: 1
  m_ReceiveShadows: 1
  m_DynamicOccludee: 1
  m_StaticShadowCaster: 0
  m_MotionVectors: 1
  m_LightProbeUsage: 1
  m_ReflectionProbeUsage: 1
  m_RayTracingMode: 3
  m_RayTraceProcedural: 0
  m_RenderingLayerMask: 1
  m_RendererPriority: 0
  m_Materials:
  - {fileID: 2100000, guid: 37f6354679f3e1748b76a9221f51f4ac, type: 2}
  m_StaticBatchInfo:
    firstSubMesh: 0
    subMeshCount: 0
  m_StaticBatchRoot: {fileID: 0}
  m_ProbeAnchor: {fileID: 0}
  m_LightProbeVolumeOverride: {fileID: 0}
  m_ScaleInLightmap: 1
  m_ReceiveGI: 1
  m_PreserveUVs: 0
  m_IgnoreNormalsForChartDetection: 0
  m_ImportantGI: 0
  m_StitchLightmapSeams: 1
  m_SelectedEditorRenderState: 3
  m_MinimumChartSize: 4
  m_AutoUVMaxDistance: 0.5
  m_AutoUVMaxAngle: 89
  m_LightmapParameters: {fileID: 0}
  m_SortingLayerID: 0
  m_SortingLayer: 0
  m_SortingOrder: 0
  serializedVersion: 2
  m_Quality: 0
  m_UpdateWhenOffscreen: 0
  m_SkinnedMotionVectors: 1
  m_Mesh: {fileID: 6041377522765385347, guid: 2d226e59912d0014fbf2646ed5c4b916, type: 3}
  m_Bones:
  - {fileID: 5525267034130997601}
  - {fileID: 9194755753543043402}
  - {fileID: 5206133584926634155}
  - {fileID: 8212265297738809059}
  - {fileID: 7850902064473741956}
  - {fileID: 800706441381344363}
  - {fileID: 3764804433698073080}
  - {fileID: 7812904174132984422}
  - {fileID: 5158134851403621196}
  - {fileID: 3642598216678676158}
  - {fileID: 857371296839266856}
  - {fileID: 7628950411471437974}
  - {fileID: 2951159179084323893}
  - {fileID: 2667915150602852727}
  - {fileID: 3750887957434597730}
  - {fileID: 1584657243651480296}
  - {fileID: 4873836069029021929}
  - {fileID: 3574802694009920858}
  - {fileID: 3395971414792663118}
  - {fileID: 3840293921996771007}
  - {fileID: 2922545645862173527}
  - {fileID: 8845133679496721590}
  - {fileID: 5658767787730389988}
  - {fileID: 6296246777754780678}
  - {fileID: 3729379650512242067}
  - {fileID: 5011835719432790193}
  - {fileID: 5635157930548679370}
  - {fileID: 5072812256645469067}
  - {fileID: 539487513290490558}
  - {fileID: 7159844699236170617}
  - {fileID: 2321687145592697401}
  - {fileID: 4725826864795375917}
  - {fileID: 27893225390202865}
  - {fileID: 668614690749546428}
  - {fileID: 7534102800640064908}
  - {fileID: 3433680506655300509}
  - {fileID: 486288827801925930}
  - {fileID: 7162026533156904852}
  - {fileID: 3074593275667097881}
  - {fileID: 6948675661480586564}
  - {fileID: 2196357522098856048}
  - {fileID: 3805027261472212991}
  - {fileID: 2243745219765718476}
  - {fileID: 4391270252992242276}
  - {fileID: 3815099188393395504}
  - {fileID: 1485247588464446640}
  - {fileID: 2770804423480782706}
  - {fileID: 644651307435622912}
  - {fileID: 4763578508522590620}
  - {fileID: 7312274710295833548}
  - {fileID: 8944771123585873871}
  - {fileID: 8562258667841333610}
  - {fileID: 8052215413501048214}
  - {fileID: 5342450427714671713}
  - {fileID: 6633032826763670571}
  - {fileID: 3780163385479130285}
  - {fileID: 2984917625692832915}
  - {fileID: 8162836850509416647}
  - {fileID: 6648785346304879476}
  - {fileID: 3082353819072236532}
  - {fileID: 7799214775394463656}
  - {fileID: 451890390913213787}
  - {fileID: 8462867937776310992}
  - {fileID: 7511601353257756877}
  m_BlendShapeWeights: []
  m_RootBone: {fileID: 5525267034130997601}
  m_AABB:
    m_Center: {x: 0.00016778708, y: 1.7340008, z: 0.028698951}
    m_Extent: {x: 0.3310948, y: 0.42025912, z: 0.39716962}
  m_DirtyAABB: 0
--- !u!1 &2612664350948696044
GameObject:
  m_ObjectHideFlags: 0
  m_CorrespondingSourceObject: {fileID: 0}
  m_PrefabInstance: {fileID: 0}
  m_PrefabAsset: {fileID: 0}
  serializedVersion: 6
  m_Component:
  - component: {fileID: 6408104134678953515}
  m_Layer: 0
  m_Name: RightToe_End_end
  m_TagString: Untagged
  m_Icon: {fileID: 0}
  m_NavMeshLayer: 0
  m_StaticEditorFlags: 0
  m_IsActive: 1
--- !u!4 &6408104134678953515
Transform:
  m_ObjectHideFlags: 0
  m_CorrespondingSourceObject: {fileID: 0}
  m_PrefabInstance: {fileID: 0}
  m_PrefabAsset: {fileID: 0}
  m_GameObject: {fileID: 2612664350948696044}
  serializedVersion: 2
  m_LocalRotation: {x: 0, y: -0, z: -0, w: 1}
  m_LocalPosition: {x: -0, y: 0.08673208, z: 0}
  m_LocalScale: {x: 1, y: 1, z: 1}
  m_ConstrainProportionsScale: 0
  m_Children: []
  m_Father: {fileID: 7511601353257756877}
  m_LocalEulerAnglesHint: {x: 0, y: 0, z: 0}
--- !u!1 &2774829288066228035
GameObject:
  m_ObjectHideFlags: 0
  m_CorrespondingSourceObject: {fileID: 0}
  m_PrefabInstance: {fileID: 0}
  m_PrefabAsset: {fileID: 0}
  serializedVersion: 6
  m_Component:
  - component: {fileID: 5635157930548679370}
  m_Layer: 0
  m_Name: LeftHandPinky1
  m_TagString: Untagged
  m_Icon: {fileID: 0}
  m_NavMeshLayer: 0
  m_StaticEditorFlags: 0
  m_IsActive: 1
--- !u!4 &5635157930548679370
Transform:
  m_ObjectHideFlags: 0
  m_CorrespondingSourceObject: {fileID: 0}
  m_PrefabInstance: {fileID: 0}
  m_PrefabAsset: {fileID: 0}
  m_GameObject: {fileID: 2774829288066228035}
  serializedVersion: 2
  m_LocalRotation: {x: -0.00055183185, y: -0.0006171073, z: -0.053414773, w: 0.9985721}
  m_LocalPosition: {x: -0.07023099, y: 0.20045453, z: 0.0003858142}
  m_LocalScale: {x: 0.9999999, y: 1, z: 1}
  m_ConstrainProportionsScale: 0
  m_Children:
  - {fileID: 5072812256645469067}
  m_Father: {fileID: 3642598216678676158}
  m_LocalEulerAnglesHint: {x: 0, y: 0, z: 0}
--- !u!1 &2817057018421582923
GameObject:
  m_ObjectHideFlags: 0
  m_CorrespondingSourceObject: {fileID: 0}
  m_PrefabInstance: {fileID: 0}
  m_PrefabAsset: {fileID: 0}
  serializedVersion: 6
  m_Component:
  - component: {fileID: 4391270252992242276}
  m_Layer: 0
  m_Name: RightHandMiddle2
  m_TagString: Untagged
  m_Icon: {fileID: 0}
  m_NavMeshLayer: 0
  m_StaticEditorFlags: 0
  m_IsActive: 1
--- !u!4 &4391270252992242276
Transform:
  m_ObjectHideFlags: 0
  m_CorrespondingSourceObject: {fileID: 0}
  m_PrefabInstance: {fileID: 0}
  m_PrefabAsset: {fileID: 0}
  m_GameObject: {fileID: 2817057018421582923}
  serializedVersion: 2
  m_LocalRotation: {x: -0.00000017001544, y: 0.000010392522, z: -0.00043445505, w: 0.99999994}
  m_LocalPosition: {x: 0.000050442217, y: 0.06331751, z: -0.000000030088703}
  m_LocalScale: {x: 0.99999994, y: 1, z: 0.9999999}
  m_ConstrainProportionsScale: 0
  m_Children:
  - {fileID: 3815099188393395504}
  m_Father: {fileID: 2243745219765718476}
  m_LocalEulerAnglesHint: {x: 0, y: 0, z: 0}
--- !u!1 &2845406681253342649
GameObject:
  m_ObjectHideFlags: 0
  m_CorrespondingSourceObject: {fileID: 0}
  m_PrefabInstance: {fileID: 0}
  m_PrefabAsset: {fileID: 0}
  serializedVersion: 6
  m_Component:
  - component: {fileID: 3729379650512242067}
  m_Layer: 0
  m_Name: LeftHandRing3
  m_TagString: Untagged
  m_Icon: {fileID: 0}
  m_NavMeshLayer: 0
  m_StaticEditorFlags: 0
  m_IsActive: 1
--- !u!4 &3729379650512242067
Transform:
  m_ObjectHideFlags: 0
  m_CorrespondingSourceObject: {fileID: 0}
  m_PrefabInstance: {fileID: 0}
  m_PrefabAsset: {fileID: 0}
  m_GameObject: {fileID: 2845406681253342649}
  serializedVersion: 2
  m_LocalRotation: {x: -0.00000020688405, y: -0.0000037137606, z: -0.000041754014, w: 1}
  m_LocalPosition: {x: 0.0000050368344, y: 0.059544124, z: -0.00000007763989}
  m_LocalScale: {x: 0.9999999, y: 0.9999999, z: 0.9999998}
  m_ConstrainProportionsScale: 0
  m_Children:
  - {fileID: 5011835719432790193}
  m_Father: {fileID: 6296246777754780678}
  m_LocalEulerAnglesHint: {x: 0, y: 0, z: 0}
--- !u!1 &3120373584068764146
GameObject:
  m_ObjectHideFlags: 0
  m_CorrespondingSourceObject: {fileID: 0}
  m_PrefabInstance: {fileID: 0}
  m_PrefabAsset: {fileID: 0}
  serializedVersion: 6
  m_Component:
  - component: {fileID: 6633032826763670571}
  m_Layer: 0
  m_Name: LeftUpLeg
  m_TagString: Untagged
  m_Icon: {fileID: 0}
  m_NavMeshLayer: 0
  m_StaticEditorFlags: 0
  m_IsActive: 1
--- !u!4 &6633032826763670571
Transform:
  m_ObjectHideFlags: 0
  m_CorrespondingSourceObject: {fileID: 0}
  m_PrefabInstance: {fileID: 0}
  m_PrefabAsset: {fileID: 0}
  m_GameObject: {fileID: 3120373584068764146}
  serializedVersion: 2
  m_LocalRotation: {x: 0.0012365865, y: 0.0057111457, z: 0.9999009, w: 0.012813227}
  m_LocalPosition: {x: -0.22154349, y: -0.1372746, z: -0.004228498}
  m_LocalScale: {x: 1.0000145, y: 0.99999994, z: 1.0000008}
  m_ConstrainProportionsScale: 0
  m_Children:
  - {fileID: 3780163385479130285}
  m_Father: {fileID: 5525267034130997601}
  m_LocalEulerAnglesHint: {x: 0, y: 0, z: 0}
--- !u!1 &3199732123359296451
GameObject:
  m_ObjectHideFlags: 0
  m_CorrespondingSourceObject: {fileID: 0}
  m_PrefabInstance: {fileID: 0}
  m_PrefabAsset: {fileID: 0}
  serializedVersion: 6
  m_Component:
  - component: {fileID: 8562258667841333610}
  m_Layer: 0
  m_Name: RightHandPinky2
  m_TagString: Untagged
  m_Icon: {fileID: 0}
  m_NavMeshLayer: 0
  m_StaticEditorFlags: 0
  m_IsActive: 1
--- !u!4 &8562258667841333610
Transform:
  m_ObjectHideFlags: 0
  m_CorrespondingSourceObject: {fileID: 0}
  m_PrefabInstance: {fileID: 0}
  m_PrefabAsset: {fileID: 0}
  m_GameObject: {fileID: 3199732123359296451}
  serializedVersion: 2
  m_LocalRotation: {x: -0.00000018491562, y: -0.0000014230063, z: -0.00010136582, w: 1}
  m_LocalPosition: {x: 0.0000117865575, y: 0.053005144, z: -0.000000036628915}
  m_LocalScale: {x: 1, y: 1, z: 0.99999994}
  m_ConstrainProportionsScale: 0
  m_Children:
  - {fileID: 8052215413501048214}
  m_Father: {fileID: 8944771123585873871}
  m_LocalEulerAnglesHint: {x: 0, y: 0, z: 0}
--- !u!1 &3267390079089920030
GameObject:
  m_ObjectHideFlags: 0
  m_CorrespondingSourceObject: {fileID: 0}
  m_PrefabInstance: {fileID: 0}
  m_PrefabAsset: {fileID: 0}
  serializedVersion: 6
  m_Component:
  - component: {fileID: 4763578508522590620}
  m_Layer: 0
  m_Name: RightHandRing3
  m_TagString: Untagged
  m_Icon: {fileID: 0}
  m_NavMeshLayer: 0
  m_StaticEditorFlags: 0
  m_IsActive: 1
--- !u!4 &4763578508522590620
Transform:
  m_ObjectHideFlags: 0
  m_CorrespondingSourceObject: {fileID: 0}
  m_PrefabInstance: {fileID: 0}
  m_PrefabAsset: {fileID: 0}
  m_GameObject: {fileID: 3267390079089920030}
  serializedVersion: 2
  m_LocalRotation: {x: 0.00000074907257, y: -0.000029905294, z: 0.0007446216, w: 0.99999976}
  m_LocalPosition: {x: -0.000023352355, y: 0.05760406, z: -0.0000003098836}
  m_LocalScale: {x: 1.0000001, y: 1.0000001, z: 1.0000001}
  m_ConstrainProportionsScale: 0
  m_Children:
  - {fileID: 7312274710295833548}
  m_Father: {fileID: 644651307435622912}
  m_LocalEulerAnglesHint: {x: 0, y: 0, z: 0}
--- !u!1 &3518724626825381400
GameObject:
  m_ObjectHideFlags: 0
  m_CorrespondingSourceObject: {fileID: 0}
  m_PrefabInstance: {fileID: 0}
  m_PrefabAsset: {fileID: 0}
  serializedVersion: 6
  m_Component:
  - component: {fileID: 5342450427714671713}
  m_Layer: 0
  m_Name: RightHandPinky4
  m_TagString: Untagged
  m_Icon: {fileID: 0}
  m_NavMeshLayer: 0
  m_StaticEditorFlags: 0
  m_IsActive: 1
--- !u!4 &5342450427714671713
Transform:
  m_ObjectHideFlags: 0
  m_CorrespondingSourceObject: {fileID: 0}
  m_PrefabInstance: {fileID: 0}
  m_PrefabAsset: {fileID: 0}
  m_GameObject: {fileID: 3518724626825381400}
  serializedVersion: 2
  m_LocalRotation: {x: -0.0000000110940155, y: 0.0000000060462444, z: -0.000000003533557, w: 1}
  m_LocalPosition: {x: -0.00001311697, y: 0.03205374, z: -0.000000026151538}
  m_LocalScale: {x: 1, y: 1.0000001, z: 1.0000001}
  m_ConstrainProportionsScale: 0
  m_Children:
  - {fileID: 102917261531301520}
  m_Father: {fileID: 8052215413501048214}
  m_LocalEulerAnglesHint: {x: 0, y: 0, z: 0}
--- !u!1 &3613604862144971996
GameObject:
  m_ObjectHideFlags: 0
  m_CorrespondingSourceObject: {fileID: 0}
  m_PrefabInstance: {fileID: 0}
  m_PrefabAsset: {fileID: 0}
  serializedVersion: 6
  m_Component:
  - component: {fileID: 9194755753543043402}
  m_Layer: 0
  m_Name: Spine
  m_TagString: Untagged
  m_Icon: {fileID: 0}
  m_NavMeshLayer: 0
  m_StaticEditorFlags: 0
  m_IsActive: 1
--- !u!4 &9194755753543043402
Transform:
  m_ObjectHideFlags: 0
  m_CorrespondingSourceObject: {fileID: 0}
  m_PrefabInstance: {fileID: 0}
  m_PrefabAsset: {fileID: 0}
  m_GameObject: {fileID: 3613604862144971996}
  serializedVersion: 2
  m_LocalRotation: {x: -0.011799122, y: 0.0000025215115, z: -0.00005616021, w: 0.9999304}
  m_LocalPosition: {x: 6.571099e-13, y: 0.24706604, z: -0.005831604}
  m_LocalScale: {x: 1, y: 1, z: 0.99999994}
  m_ConstrainProportionsScale: 0
  m_Children:
  - {fileID: 5206133584926634155}
  m_Father: {fileID: 5525267034130997601}
  m_LocalEulerAnglesHint: {x: 0, y: 0, z: 0}
--- !u!1 &3673930275038377835
GameObject:
  m_ObjectHideFlags: 0
  m_CorrespondingSourceObject: {fileID: 0}
  m_PrefabInstance: {fileID: 0}
  m_PrefabAsset: {fileID: 0}
  serializedVersion: 6
  m_Component:
  - component: {fileID: 6296246777754780678}
  m_Layer: 0
  m_Name: LeftHandRing2
  m_TagString: Untagged
  m_Icon: {fileID: 0}
  m_NavMeshLayer: 0
  m_StaticEditorFlags: 0
  m_IsActive: 1
--- !u!4 &6296246777754780678
Transform:
  m_ObjectHideFlags: 0
  m_CorrespondingSourceObject: {fileID: 0}
  m_PrefabInstance: {fileID: 0}
  m_PrefabAsset: {fileID: 0}
  m_GameObject: {fileID: 3673930275038377835}
  serializedVersion: 2
  m_LocalRotation: {x: -0.00000036093758, y: -0.000000072329556, z: 0.00008289334, w: 1}
  m_LocalPosition: {x: -0.00000469665, y: 0.060951173, z: -0.00000007035225}
  m_LocalScale: {x: 1.0000001, y: 0.9999999, z: 1}
  m_ConstrainProportionsScale: 0
  m_Children:
  - {fileID: 3729379650512242067}
  m_Father: {fileID: 5658767787730389988}
  m_LocalEulerAnglesHint: {x: 0, y: 0, z: 0}
--- !u!1 &3769731283221817708
GameObject:
  m_ObjectHideFlags: 0
  m_CorrespondingSourceObject: {fileID: 0}
  m_PrefabInstance: {fileID: 0}
  m_PrefabAsset: {fileID: 0}
  serializedVersion: 6
  m_Component:
  - component: {fileID: 5072812256645469067}
  m_Layer: 0
  m_Name: LeftHandPinky2
  m_TagString: Untagged
  m_Icon: {fileID: 0}
  m_NavMeshLayer: 0
  m_StaticEditorFlags: 0
  m_IsActive: 1
--- !u!4 &5072812256645469067
Transform:
  m_ObjectHideFlags: 0
  m_CorrespondingSourceObject: {fileID: 0}
  m_PrefabInstance: {fileID: 0}
  m_PrefabAsset: {fileID: 0}
  m_GameObject: {fileID: 3769731283221817708}
  serializedVersion: 2
  m_LocalRotation: {x: 0.00000077780504, y: -0.0000009350438, z: -0.0000056191266, w: 1}
  m_LocalPosition: {x: -0.0000029692612, y: 0.052428883, z: 0.000000043176986}
  m_LocalScale: {x: 1.0000001, y: 1, z: 1.0000001}
  m_ConstrainProportionsScale: 0
  m_Children:
  - {fileID: 539487513290490558}
  m_Father: {fileID: 5635157930548679370}
  m_LocalEulerAnglesHint: {x: 0, y: 0, z: 0}
--- !u!1 &3827527930201827188
GameObject:
  m_ObjectHideFlags: 0
  m_CorrespondingSourceObject: {fileID: 0}
  m_PrefabInstance: {fileID: 0}
  m_PrefabAsset: {fileID: 0}
  serializedVersion: 6
  m_Component:
  - component: {fileID: 451890390913213787}
  m_Layer: 0
  m_Name: RightFoot
  m_TagString: Untagged
  m_Icon: {fileID: 0}
  m_NavMeshLayer: 0
  m_StaticEditorFlags: 0
  m_IsActive: 1
--- !u!4 &451890390913213787
Transform:
  m_ObjectHideFlags: 0
  m_CorrespondingSourceObject: {fileID: 0}
  m_PrefabInstance: {fileID: 0}
  m_PrefabAsset: {fileID: 0}
  m_GameObject: {fileID: 3827527930201827188}
  serializedVersion: 2
  m_LocalRotation: {x: 0.6004714, y: 0.04311299, z: 0.024889328, w: 0.7980952}
  m_LocalPosition: {x: -0.000000021606683, y: 0.5159542, z: 0.000000009015202}
  m_LocalScale: {x: 0.9999998, y: 0.99999994, z: 0.99999994}
  m_ConstrainProportionsScale: 0
  m_Children:
  - {fileID: 8462867937776310992}
  m_Father: {fileID: 7799214775394463656}
  m_LocalEulerAnglesHint: {x: 0, y: 0, z: 0}
--- !u!1 &4032321892662110823
GameObject:
  m_ObjectHideFlags: 0
  m_CorrespondingSourceObject: {fileID: 0}
  m_PrefabInstance: {fileID: 0}
  m_PrefabAsset: {fileID: 0}
  serializedVersion: 6
  m_Component:
  - component: {fileID: 2770804423480782706}
  m_Layer: 0
  m_Name: RightHandRing1
  m_TagString: Untagged
  m_Icon: {fileID: 0}
  m_NavMeshLayer: 0
  m_StaticEditorFlags: 0
  m_IsActive: 1
--- !u!4 &2770804423480782706
Transform:
  m_ObjectHideFlags: 0
  m_CorrespondingSourceObject: {fileID: 0}
  m_PrefabInstance: {fileID: 0}
  m_PrefabAsset: {fileID: 0}
  m_GameObject: {fileID: 4032321892662110823}
  serializedVersion: 2
  m_LocalRotation: {x: 0.0023668082, y: -0.00115577, z: 0.053001717, w: 0.99859095}
  m_LocalPosition: {x: 0.030193843, y: 0.2282042, z: -0.0013753271}
  m_LocalScale: {x: 1, y: 1, z: 0.9999998}
  m_ConstrainProportionsScale: 0
  m_Children:
  - {fileID: 644651307435622912}
  m_Father: {fileID: 668614690749546428}
  m_LocalEulerAnglesHint: {x: 0, y: 0, z: 0}
--- !u!1 &4047638940037141261
GameObject:
  m_ObjectHideFlags: 0
  m_CorrespondingSourceObject: {fileID: 0}
  m_PrefabInstance: {fileID: 0}
  m_PrefabAsset: {fileID: 0}
  serializedVersion: 6
  m_Component:
  - component: {fileID: 8845133679496721590}
  m_Layer: 0
  m_Name: LeftHandMiddle4
  m_TagString: Untagged
  m_Icon: {fileID: 0}
  m_NavMeshLayer: 0
  m_StaticEditorFlags: 0
  m_IsActive: 1
--- !u!4 &8845133679496721590
Transform:
  m_ObjectHideFlags: 0
  m_CorrespondingSourceObject: {fileID: 0}
  m_PrefabInstance: {fileID: 0}
  m_PrefabAsset: {fileID: 0}
  m_GameObject: {fileID: 4047638940037141261}
  serializedVersion: 2
  m_LocalRotation: {x: 0.000000002224958, y: -0.00000003634778, z: -0.000000041472166, w: 1}
  m_LocalPosition: {x: 0.0000065059025, y: 0.051708568, z: -0.00000022680469}
  m_LocalScale: {x: 1, y: 1, z: 0.9999999}
  m_ConstrainProportionsScale: 0
  m_Children:
  - {fileID: 2526597647388757036}
  m_Father: {fileID: 2922545645862173527}
  m_LocalEulerAnglesHint: {x: 0, y: 0, z: 0}
--- !u!1 &4153316121679415836
GameObject:
  m_ObjectHideFlags: 0
  m_CorrespondingSourceObject: {fileID: 0}
  m_PrefabInstance: {fileID: 0}
  m_PrefabAsset: {fileID: 0}
  serializedVersion: 6
  m_Component:
  - component: {fileID: 5802789502519476674}
  m_Layer: 0
  m_Name: LeftHandThumb4_end
  m_TagString: Untagged
  m_Icon: {fileID: 0}
  m_NavMeshLayer: 0
  m_StaticEditorFlags: 0
  m_IsActive: 1
--- !u!4 &5802789502519476674
Transform:
  m_ObjectHideFlags: 0
  m_CorrespondingSourceObject: {fileID: 0}
  m_PrefabInstance: {fileID: 0}
  m_PrefabAsset: {fileID: 0}
  m_GameObject: {fileID: 4153316121679415836}
  serializedVersion: 2
  m_LocalRotation: {x: 0, y: -0, z: -0, w: 1}
  m_LocalPosition: {x: -0, y: 0.050348524, z: 0}
  m_LocalScale: {x: 1, y: 1, z: 1}
  m_ConstrainProportionsScale: 0
  m_Children: []
  m_Father: {fileID: 2667915150602852727}
  m_LocalEulerAnglesHint: {x: 0, y: 0, z: 0}
--- !u!1 &4303307718468409451
GameObject:
  m_ObjectHideFlags: 0
  m_CorrespondingSourceObject: {fileID: 0}
  m_PrefabInstance: {fileID: 0}
  m_PrefabAsset: {fileID: 0}
  serializedVersion: 6
  m_Component:
  - component: {fileID: 2196357522098856048}
  m_Layer: 0
  m_Name: RightHandIndex3
  m_TagString: Untagged
  m_Icon: {fileID: 0}
  m_NavMeshLayer: 0
  m_StaticEditorFlags: 0
  m_IsActive: 1
--- !u!4 &2196357522098856048
Transform:
  m_ObjectHideFlags: 0
  m_CorrespondingSourceObject: {fileID: 0}
  m_PrefabInstance: {fileID: 0}
  m_PrefabAsset: {fileID: 0}
  m_GameObject: {fileID: 4303307718468409451}
  serializedVersion: 2
  m_LocalRotation: {x: -0.00000073687636, y: -0.00006358953, z: 0.0018208605, w: 0.99999833}
  m_LocalPosition: {x: -0.0000574705, y: 0.061182175, z: 0.00000006983289}
  m_LocalScale: {x: 0.99999994, y: 0.9999998, z: 0.99999994}
  m_ConstrainProportionsScale: 0
  m_Children:
  - {fileID: 3805027261472212991}
  m_Father: {fileID: 6948675661480586564}
  m_LocalEulerAnglesHint: {x: 0, y: 0, z: 0}
--- !u!1 &4416170743432791579
GameObject:
  m_ObjectHideFlags: 0
  m_CorrespondingSourceObject: {fileID: 0}
  m_PrefabInstance: {fileID: 0}
  m_PrefabAsset: {fileID: 0}
  serializedVersion: 6
  m_Component:
  - component: {fileID: 668614690749546428}
  m_Layer: 0
  m_Name: RightHand
  m_TagString: Untagged
  m_Icon: {fileID: 0}
  m_NavMeshLayer: 0
  m_StaticEditorFlags: 0
  m_IsActive: 1
--- !u!4 &668614690749546428
Transform:
  m_ObjectHideFlags: 0
  m_CorrespondingSourceObject: {fileID: 0}
  m_PrefabInstance: {fileID: 0}
  m_PrefabAsset: {fileID: 0}
  m_GameObject: {fileID: 4416170743432791579}
  serializedVersion: 2
  m_LocalRotation: {x: -0.0022262842, y: -0.0014705777, z: -0.05323226, w: 0.9985786}
  m_LocalPosition: {x: -0.00000000485139, y: 0.4449696, z: 0.00000015356578}
  m_LocalScale: {x: 1, y: 0.99999994, z: 0.9999999}
  m_ConstrainProportionsScale: 0
  m_Children:
  - {fileID: 3074593275667097881}
  - {fileID: 2243745219765718476}
  - {fileID: 8944771123585873871}
  - {fileID: 2770804423480782706}
  - {fileID: 7534102800640064908}
  m_Father: {fileID: 27893225390202865}
  m_LocalEulerAnglesHint: {x: 0, y: 0, z: 0}
--- !u!1 &4488887065591376339
GameObject:
  m_ObjectHideFlags: 0
  m_CorrespondingSourceObject: {fileID: 0}
  m_PrefabInstance: {fileID: 0}
  m_PrefabAsset: {fileID: 0}
  serializedVersion: 6
  m_Component:
  - component: {fileID: 3515423401319124795}
  m_Layer: 0
  m_Name: LeftHandPinky4_end
  m_TagString: Untagged
  m_Icon: {fileID: 0}
  m_NavMeshLayer: 0
  m_StaticEditorFlags: 0
  m_IsActive: 1
--- !u!4 &3515423401319124795
Transform:
  m_ObjectHideFlags: 0
  m_CorrespondingSourceObject: {fileID: 0}
  m_PrefabInstance: {fileID: 0}
  m_PrefabAsset: {fileID: 0}
  m_GameObject: {fileID: 4488887065591376339}
  serializedVersion: 2
  m_LocalRotation: {x: 0, y: -0, z: -0, w: 1}
  m_LocalPosition: {x: -0, y: 0.03571213, z: 0}
  m_LocalScale: {x: 1, y: 1, z: 1}
  m_ConstrainProportionsScale: 0
  m_Children: []
  m_Father: {fileID: 7159844699236170617}
  m_LocalEulerAnglesHint: {x: 0, y: 0, z: 0}
--- !u!1 &4700875060160663067
GameObject:
  m_ObjectHideFlags: 0
  m_CorrespondingSourceObject: {fileID: 0}
  m_PrefabInstance: {fileID: 0}
  m_PrefabAsset: {fileID: 0}
  serializedVersion: 6
  m_Component:
  - component: {fileID: 8212265297738809059}
  m_Layer: 0
  m_Name: Spine2
  m_TagString: Untagged
  m_Icon: {fileID: 0}
  m_NavMeshLayer: 0
  m_StaticEditorFlags: 0
  m_IsActive: 1
--- !u!4 &8212265297738809059
Transform:
  m_ObjectHideFlags: 0
  m_CorrespondingSourceObject: {fileID: 0}
  m_PrefabInstance: {fileID: 0}
  m_PrefabAsset: {fileID: 0}
  m_GameObject: {fileID: 4700875060160663067}
  serializedVersion: 2
  m_LocalRotation: {x: 0.0000000027939682, y: -2.9476747e-19, z: 1.3552528e-19, w: 1}
  m_LocalPosition: {x: 3.1222438e-12, y: 0.3295134, z: -0.000000002384183}
  m_LocalScale: {x: 1, y: 0.99999994, z: 1}
  m_ConstrainProportionsScale: 0
  m_Children:
  - {fileID: 3764804433698073080}
  - {fileID: 7850902064473741956}
  - {fileID: 2321687145592697401}
  m_Father: {fileID: 5206133584926634155}
  m_LocalEulerAnglesHint: {x: 0, y: 0, z: 0}
--- !u!1 &4786972123770410130
GameObject:
  m_ObjectHideFlags: 0
  m_CorrespondingSourceObject: {fileID: 0}
  m_PrefabInstance: {fileID: 0}
  m_PrefabAsset: {fileID: 0}
  serializedVersion: 6
  m_Component:
  - component: {fileID: 1584657243651480296}
  m_Layer: 0
  m_Name: LeftHandIndex2
  m_TagString: Untagged
  m_Icon: {fileID: 0}
  m_NavMeshLayer: 0
  m_StaticEditorFlags: 0
  m_IsActive: 1
--- !u!4 &1584657243651480296
Transform:
  m_ObjectHideFlags: 0
  m_CorrespondingSourceObject: {fileID: 0}
  m_PrefabInstance: {fileID: 0}
  m_PrefabAsset: {fileID: 0}
  m_GameObject: {fileID: 4786972123770410130}
  serializedVersion: 2
  m_LocalRotation: {x: -0.00000025284993, y: 0.0000009386637, z: -0.000039370276, w: 1}
  m_LocalPosition: {x: -0.0000126649065, y: 0.06253871, z: -0.00000014057775}
  m_LocalScale: {x: 1, y: 1, z: 1}
  m_ConstrainProportionsScale: 0
  m_Children:
  - {fileID: 4873836069029021929}
  m_Father: {fileID: 3750887957434597730}
  m_LocalEulerAnglesHint: {x: 0, y: 0, z: 0}
--- !u!1 &4846093121093229618
GameObject:
  m_ObjectHideFlags: 0
  m_CorrespondingSourceObject: {fileID: 0}
  m_PrefabInstance: {fileID: 0}
  m_PrefabAsset: {fileID: 0}
  serializedVersion: 6
  m_Component:
  - component: {fileID: 2971699222550719750}
  m_Layer: 0
  m_Name: LeftToe_End_end
  m_TagString: Untagged
  m_Icon: {fileID: 0}
  m_NavMeshLayer: 0
  m_StaticEditorFlags: 0
  m_IsActive: 1
--- !u!4 &2971699222550719750
Transform:
  m_ObjectHideFlags: 0
  m_CorrespondingSourceObject: {fileID: 0}
  m_PrefabInstance: {fileID: 0}
  m_PrefabAsset: {fileID: 0}
  m_GameObject: {fileID: 4846093121093229618}
  serializedVersion: 2
  m_LocalRotation: {x: 0, y: -0, z: -0, w: 1}
  m_LocalPosition: {x: -0, y: 0.083664045, z: 0}
  m_LocalScale: {x: 1, y: 1, z: 1}
  m_ConstrainProportionsScale: 0
  m_Children: []
  m_Father: {fileID: 6648785346304879476}
  m_LocalEulerAnglesHint: {x: 0, y: 0, z: 0}
--- !u!1 &4859710475291585759
GameObject:
  m_ObjectHideFlags: 0
  m_CorrespondingSourceObject: {fileID: 0}
  m_PrefabInstance: {fileID: 0}
  m_PrefabAsset: {fileID: 0}
  serializedVersion: 6
  m_Component:
  - component: {fileID: 486288827801925930}
  m_Layer: 0
  m_Name: RightHandThumb3
  m_TagString: Untagged
  m_Icon: {fileID: 0}
  m_NavMeshLayer: 0
  m_StaticEditorFlags: 0
  m_IsActive: 1
--- !u!4 &486288827801925930
Transform:
  m_ObjectHideFlags: 0
  m_CorrespondingSourceObject: {fileID: 0}
  m_PrefabInstance: {fileID: 0}
  m_PrefabAsset: {fileID: 0}
  m_GameObject: {fileID: 4859710475291585759}
  serializedVersion: 2
  m_LocalRotation: {x: -0.00009235659, y: -0.0015629759, z: 0.05589174, w: 0.9984356}
  m_LocalPosition: {x: 0.00023287772, y: 0.06822682, z: -0.00000029563904}
  m_LocalScale: {x: 1, y: 1, z: 0.99999994}
  m_ConstrainProportionsScale: 0
  m_Children:
  - {fileID: 7162026533156904852}
  m_Father: {fileID: 3433680506655300509}
  m_LocalEulerAnglesHint: {x: 0, y: 0, z: 0}
--- !u!1 &4896964969771183346
GameObject:
  m_ObjectHideFlags: 0
  m_CorrespondingSourceObject: {fileID: 0}
  m_PrefabInstance: {fileID: 0}
  m_PrefabAsset: {fileID: 0}
  serializedVersion: 6
  m_Component:
  - component: {fileID: 800706441381344363}
  m_Layer: 0
  m_Name: Head
  m_TagString: Untagged
  m_Icon: {fileID: 0}
  m_NavMeshLayer: 0
  m_StaticEditorFlags: 0
  m_IsActive: 1
--- !u!4 &800706441381344363
Transform:
  m_ObjectHideFlags: 0
  m_CorrespondingSourceObject: {fileID: 0}
  m_PrefabInstance: {fileID: 0}
  m_PrefabAsset: {fileID: 0}
  m_GameObject: {fileID: 4896964969771183346}
  serializedVersion: 2
  m_LocalRotation: {x: 8.082779e-10, y: -8.5175594e-19, z: -1.2885189e-19, w: 1}
  m_LocalPosition: {x: 2.374598e-12, y: 0.18173675, z: 0.018105408}
  m_LocalScale: {x: 1, y: 1, z: 1}
  m_ConstrainProportionsScale: 0
  m_Children:
  - {fileID: 7514535403211889886}
  m_Father: {fileID: 7850902064473741956}
  m_LocalEulerAnglesHint: {x: 0, y: 0, z: 0}
--- !u!1 &5022711099726808153
GameObject:
  m_ObjectHideFlags: 0
  m_CorrespondingSourceObject: {fileID: 0}
  m_PrefabInstance: {fileID: 0}
  m_PrefabAsset: {fileID: 0}
  serializedVersion: 6
  m_Component:
  - component: {fileID: 2951159179084323893}
  m_Layer: 0
  m_Name: LeftHandThumb3
  m_TagString: Untagged
  m_Icon: {fileID: 0}
  m_NavMeshLayer: 0
  m_StaticEditorFlags: 0
  m_IsActive: 1
--- !u!4 &2951159179084323893
Transform:
  m_ObjectHideFlags: 0
  m_CorrespondingSourceObject: {fileID: 0}
  m_PrefabInstance: {fileID: 0}
  m_PrefabAsset: {fileID: 0}
  m_GameObject: {fileID: 5022711099726808153}
  serializedVersion: 2
  m_LocalRotation: {x: -0.00008682946, y: 0.0011958745, z: -0.05445596, w: 0.9985155}
  m_LocalPosition: {x: -0.0011820936, y: 0.06740963, z: 0.00000017881393}
  m_LocalScale: {x: 1, y: 1, z: 0.9999998}
  m_ConstrainProportionsScale: 0
  m_Children:
  - {fileID: 2667915150602852727}
  m_Father: {fileID: 7628950411471437974}
  m_LocalEulerAnglesHint: {x: 0, y: 0, z: 0}
--- !u!1 &5118094388060830532
GameObject:
  m_ObjectHideFlags: 0
  m_CorrespondingSourceObject: {fileID: 0}
  m_PrefabInstance: {fileID: 0}
  m_PrefabAsset: {fileID: 0}
  serializedVersion: 6
  m_Component:
  - component: {fileID: 27893225390202865}
  m_Layer: 0
  m_Name: RightForeArm
  m_TagString: Untagged
  m_Icon: {fileID: 0}
  m_NavMeshLayer: 0
  m_StaticEditorFlags: 0
  m_IsActive: 1
--- !u!4 &27893225390202865
Transform:
  m_ObjectHideFlags: 0
  m_CorrespondingSourceObject: {fileID: 0}
  m_PrefabInstance: {fileID: 0}
  m_PrefabAsset: {fileID: 0}
  m_GameObject: {fileID: 5118094388060830532}
  serializedVersion: 2
  m_LocalRotation: {x: 0.00000037256495, y: -0.0035775977, z: 0.00000021629052, w: 0.9999936}
  m_LocalPosition: {x: 9.377982e-10, y: 0.5122034, z: -0.000000046943896}
  m_LocalScale: {x: 1, y: 1.0000004, z: 1.0000002}
  m_ConstrainProportionsScale: 0
  m_Children:
  - {fileID: 668614690749546428}
  m_Father: {fileID: 4725826864795375917}
  m_LocalEulerAnglesHint: {x: 0, y: 0, z: 0}
--- !u!1 &5293547873248563742
GameObject:
  m_ObjectHideFlags: 0
  m_CorrespondingSourceObject: {fileID: 0}
  m_PrefabInstance: {fileID: 0}
  m_PrefabAsset: {fileID: 0}
  serializedVersion: 6
  m_Component:
  - component: {fileID: 7162026533156904852}
  m_Layer: 0
  m_Name: RightHandThumb4
  m_TagString: Untagged
  m_Icon: {fileID: 0}
  m_NavMeshLayer: 0
  m_StaticEditorFlags: 0
  m_IsActive: 1
--- !u!4 &7162026533156904852
Transform:
  m_ObjectHideFlags: 0
  m_CorrespondingSourceObject: {fileID: 0}
  m_PrefabInstance: {fileID: 0}
  m_PrefabAsset: {fileID: 0}
  m_GameObject: {fileID: 5293547873248563742}
  serializedVersion: 2
  m_LocalRotation: {x: 0.000000014901157, y: -0.00000003306195, z: 0.000000041443855, w: 1}
  m_LocalPosition: {x: 0.005729966, y: 0.049495205, z: -0.0000003170967}
  m_LocalScale: {x: 0.99999994, y: 1.0000002, z: 1.0000002}
  m_ConstrainProportionsScale: 0
  m_Children:
  - {fileID: 8388331376617252315}
  m_Father: {fileID: 486288827801925930}
  m_LocalEulerAnglesHint: {x: 0, y: 0, z: 0}
--- !u!1 &5696876313469204351
GameObject:
  m_ObjectHideFlags: 0
  m_CorrespondingSourceObject: {fileID: 0}
  m_PrefabInstance: {fileID: 0}
  m_PrefabAsset: {fileID: 0}
  serializedVersion: 6
  m_Component:
  - component: {fileID: 2667915150602852727}
  m_Layer: 0
  m_Name: LeftHandThumb4
  m_TagString: Untagged
  m_Icon: {fileID: 0}
  m_NavMeshLayer: 0
  m_StaticEditorFlags: 0
  m_IsActive: 1
--- !u!4 &2667915150602852727
Transform:
  m_ObjectHideFlags: 0
  m_CorrespondingSourceObject: {fileID: 0}
  m_PrefabInstance: {fileID: 0}
  m_PrefabAsset: {fileID: 0}
  m_GameObject: {fileID: 5696876313469204351}
  serializedVersion: 2
  m_LocalRotation: {x: 0.000000014901161, y: -0.0000000013969845, z: 0.00000004190952, w: 1}
  m_LocalPosition: {x: -0.0063517904, y: 0.049946297, z: 0.00000024318695}
  m_LocalScale: {x: 1, y: 0.99999994, z: 1.0000002}
  m_ConstrainProportionsScale: 0
  m_Children:
  - {fileID: 5802789502519476674}
  m_Father: {fileID: 2951159179084323893}
  m_LocalEulerAnglesHint: {x: 0, y: 0, z: 0}
--- !u!1 &5720441701711160132
GameObject:
  m_ObjectHideFlags: 0
  m_CorrespondingSourceObject: {fileID: 0}
  m_PrefabInstance: {fileID: 0}
  m_PrefabAsset: {fileID: 0}
  serializedVersion: 6
  m_Component:
  - component: {fileID: 3074593275667097881}
  m_Layer: 0
  m_Name: RightHandIndex1
  m_TagString: Untagged
  m_Icon: {fileID: 0}
  m_NavMeshLayer: 0
  m_StaticEditorFlags: 0
  m_IsActive: 1
--- !u!4 &3074593275667097881
Transform:
  m_ObjectHideFlags: 0
  m_CorrespondingSourceObject: {fileID: 0}
  m_PrefabInstance: {fileID: 0}
  m_PrefabAsset: {fileID: 0}
  m_GameObject: {fileID: 5720441701711160132}
  serializedVersion: 2
  m_LocalRotation: {x: 0.002201065, y: 0.0019198244, z: 0.052642614, w: 0.9986092}
  m_LocalPosition: {x: -0.07746431, y: 0.21769643, z: -0.0011299017}
  m_LocalScale: {x: 0.99999994, y: 1, z: 1}
  m_ConstrainProportionsScale: 0
  m_Children:
  - {fileID: 6948675661480586564}
  m_Father: {fileID: 668614690749546428}
  m_LocalEulerAnglesHint: {x: 0, y: 0, z: 0}
--- !u!1 &5746660329721519976
GameObject:
  m_ObjectHideFlags: 0
  m_CorrespondingSourceObject: {fileID: 0}
  m_PrefabInstance: {fileID: 0}
  m_PrefabAsset: {fileID: 0}
  serializedVersion: 6
  m_Component:
  - component: {fileID: 3840293921996771007}
  m_Layer: 0
  m_Name: LeftHandMiddle2
  m_TagString: Untagged
  m_Icon: {fileID: 0}
  m_NavMeshLayer: 0
  m_StaticEditorFlags: 0
  m_IsActive: 1
--- !u!4 &3840293921996771007
Transform:
  m_ObjectHideFlags: 0
  m_CorrespondingSourceObject: {fileID: 0}
  m_PrefabInstance: {fileID: 0}
  m_PrefabAsset: {fileID: 0}
  m_GameObject: {fileID: 5746660329721519976}
  serializedVersion: 2
  m_LocalRotation: {x: -0.0000007951532, y: -0.00000088525053, z: 0.00024321045, w: 1}
  m_LocalPosition: {x: -0.000018581748, y: 0.063224874, z: -0.00000007914262}
  m_LocalScale: {x: 1, y: 0.9999999, z: 1.0000001}
  m_ConstrainProportionsScale: 0
  m_Children:
  - {fileID: 2922545645862173527}
  m_Father: {fileID: 3395971414792663118}
  m_LocalEulerAnglesHint: {x: 0, y: 0, z: 0}
--- !u!1 &5849304762385778818
GameObject:
  m_ObjectHideFlags: 0
  m_CorrespondingSourceObject: {fileID: 0}
  m_PrefabInstance: {fileID: 0}
  m_PrefabAsset: {fileID: 0}
  serializedVersion: 6
  m_Component:
  - component: {fileID: 7511601353257756877}
  m_Layer: 0
  m_Name: RightToe_End
  m_TagString: Untagged
  m_Icon: {fileID: 0}
  m_NavMeshLayer: 0
  m_StaticEditorFlags: 0
  m_IsActive: 1
--- !u!4 &7511601353257756877
Transform:
  m_ObjectHideFlags: 0
  m_CorrespondingSourceObject: {fileID: 0}
  m_PrefabInstance: {fileID: 0}
  m_PrefabAsset: {fileID: 0}
  m_GameObject: {fileID: 5849304762385778818}
  serializedVersion: 2
  m_LocalRotation: {x: -0.00000019848811, y: -0.0000003138921, z: 0.00000031541273, w: 1}
  m_LocalPosition: {x: 0.0000000062584875, y: 0.086732134, z: -0.0000000010430813}
  m_LocalScale: {x: 1.0000001, y: 1.0000001, z: 1}
  m_ConstrainProportionsScale: 0
  m_Children:
  - {fileID: 6408104134678953515}
  m_Father: {fileID: 8462867937776310992}
  m_LocalEulerAnglesHint: {x: 0, y: 0, z: 0}
--- !u!1 &5859537056732552886
GameObject:
  m_ObjectHideFlags: 0
  m_CorrespondingSourceObject: {fileID: 0}
  m_PrefabInstance: {fileID: 0}
  m_PrefabAsset: {fileID: 0}
  serializedVersion: 6
  m_Component:
  - component: {fileID: 539487513290490558}
  m_Layer: 0
  m_Name: LeftHandPinky3
  m_TagString: Untagged
  m_Icon: {fileID: 0}
  m_NavMeshLayer: 0
  m_StaticEditorFlags: 0
  m_IsActive: 1
--- !u!4 &539487513290490558
Transform:
  m_ObjectHideFlags: 0
  m_CorrespondingSourceObject: {fileID: 0}
  m_PrefabInstance: {fileID: 0}
  m_PrefabAsset: {fileID: 0}
  m_GameObject: {fileID: 5859537056732552886}
  serializedVersion: 2
  m_LocalRotation: {x: -0.00000167016, y: -0.0000025370146, z: 0.000118458396, w: 1}
  m_LocalPosition: {x: -0.000003489023, y: 0.043925505, z: 0.00000003643392}
  m_LocalScale: {x: 1.0000001, y: 1, z: 1.0000002}
  m_ConstrainProportionsScale: 0
  m_Children:
  - {fileID: 7159844699236170617}
  m_Father: {fileID: 5072812256645469067}
  m_LocalEulerAnglesHint: {x: 0, y: 0, z: 0}
--- !u!1 &5899292660330609558
GameObject:
  m_ObjectHideFlags: 0
  m_CorrespondingSourceObject: {fileID: 0}
  m_PrefabInstance: {fileID: 0}
  m_PrefabAsset: {fileID: 0}
  serializedVersion: 6
  m_Component:
  - component: {fileID: 7651800951698831222}
  m_Layer: 0
  m_Name: LeftHandIndex4_end
  m_TagString: Untagged
  m_Icon: {fileID: 0}
  m_NavMeshLayer: 0
  m_StaticEditorFlags: 0
  m_IsActive: 1
--- !u!4 &7651800951698831222
Transform:
  m_ObjectHideFlags: 0
  m_CorrespondingSourceObject: {fileID: 0}
  m_PrefabInstance: {fileID: 0}
  m_PrefabAsset: {fileID: 0}
  m_GameObject: {fileID: 5899292660330609558}
  serializedVersion: 2
  m_LocalRotation: {x: 0, y: -0, z: -0, w: 1}
  m_LocalPosition: {x: -0, y: 0.04831366, z: 0}
  m_LocalScale: {x: 1, y: 1, z: 1}
  m_ConstrainProportionsScale: 0
  m_Children: []
  m_Father: {fileID: 3574802694009920858}
  m_LocalEulerAnglesHint: {x: 0, y: 0, z: 0}
--- !u!1 &5952159647685111819
GameObject:
  m_ObjectHideFlags: 0
  m_CorrespondingSourceObject: {fileID: 0}
  m_PrefabInstance: {fileID: 0}
  m_PrefabAsset: {fileID: 0}
  serializedVersion: 6
  m_Component:
  - component: {fileID: 3750887957434597730}
  m_Layer: 0
  m_Name: LeftHandIndex1
  m_TagString: Untagged
  m_Icon: {fileID: 0}
  m_NavMeshLayer: 0
  m_StaticEditorFlags: 0
  m_IsActive: 1
--- !u!4 &3750887957434597730
Transform:
  m_ObjectHideFlags: 0
  m_CorrespondingSourceObject: {fileID: 0}
  m_PrefabInstance: {fileID: 0}
  m_PrefabAsset: {fileID: 0}
  m_GameObject: {fileID: 5952159647685111819}
  serializedVersion: 2
  m_LocalRotation: {x: -0.0004900819, y: 0.0005415403, z: -0.05348982, w: 0.9985682}
  m_LocalPosition: {x: 0.074866414, y: 0.21840914, z: 0.00055235915}
  m_LocalScale: {x: 0.99999994, y: 1.0000001, z: 0.99999994}
  m_ConstrainProportionsScale: 0
  m_Children:
  - {fileID: 1584657243651480296}
  m_Father: {fileID: 3642598216678676158}
  m_LocalEulerAnglesHint: {x: 0, y: 0, z: 0}
--- !u!1 &5978369378925463744
GameObject:
  m_ObjectHideFlags: 0
  m_CorrespondingSourceObject: {fileID: 0}
  m_PrefabInstance: {fileID: 0}
  m_PrefabAsset: {fileID: 0}
  serializedVersion: 6
  m_Component:
  - component: {fileID: 8388331376617252315}
  m_Layer: 0
  m_Name: RightHandThumb4_end
  m_TagString: Untagged
  m_Icon: {fileID: 0}
  m_NavMeshLayer: 0
  m_StaticEditorFlags: 0
  m_IsActive: 1
--- !u!4 &8388331376617252315
Transform:
  m_ObjectHideFlags: 0
  m_CorrespondingSourceObject: {fileID: 0}
  m_PrefabInstance: {fileID: 0}
  m_PrefabAsset: {fileID: 0}
  m_GameObject: {fileID: 5978369378925463744}
  serializedVersion: 2
  m_LocalRotation: {x: 0, y: -0, z: -0, w: 1}
  m_LocalPosition: {x: -0, y: 0.04982579, z: 0}
  m_LocalScale: {x: 1, y: 1, z: 1}
  m_ConstrainProportionsScale: 0
  m_Children: []
  m_Father: {fileID: 7162026533156904852}
  m_LocalEulerAnglesHint: {x: 0, y: 0, z: 0}
--- !u!1 &6157652222021047745
GameObject:
  m_ObjectHideFlags: 0
  m_CorrespondingSourceObject: {fileID: 0}
  m_PrefabInstance: {fileID: 0}
  m_PrefabAsset: {fileID: 0}
  serializedVersion: 6
  m_Component:
  - component: {fileID: 5658767787730389988}
  m_Layer: 0
  m_Name: LeftHandRing1
  m_TagString: Untagged
  m_Icon: {fileID: 0}
  m_NavMeshLayer: 0
  m_StaticEditorFlags: 0
  m_IsActive: 1
--- !u!4 &5658767787730389988
Transform:
  m_ObjectHideFlags: 0
  m_CorrespondingSourceObject: {fileID: 0}
  m_PrefabInstance: {fileID: 0}
  m_PrefabAsset: {fileID: 0}
  m_GameObject: {fileID: 6157652222021047745}
  serializedVersion: 2
  m_LocalRotation: {x: -0.0004866152, y: 0.0006073567, z: -0.053427067, w: 0.99857146}
  m_LocalPosition: {x: -0.02881601, y: 0.22413856, z: -0.00048035628}
  m_LocalScale: {x: 0.99999994, y: 1, z: 1}
  m_ConstrainProportionsScale: 0
  m_Children:
  - {fileID: 6296246777754780678}
  m_Father: {fileID: 3642598216678676158}
  m_LocalEulerAnglesHint: {x: 0, y: 0, z: 0}
--- !u!1 &6797209037630218773
GameObject:
  m_ObjectHideFlags: 0
  m_CorrespondingSourceObject: {fileID: 0}
  m_PrefabInstance: {fileID: 0}
  m_PrefabAsset: {fileID: 0}
  serializedVersion: 6
  m_Component:
  - component: {fileID: 8462867937776310992}
  m_Layer: 0
  m_Name: RightToeBase
  m_TagString: Untagged
  m_Icon: {fileID: 0}
  m_NavMeshLayer: 0
  m_StaticEditorFlags: 0
  m_IsActive: 1
--- !u!4 &8462867937776310992
Transform:
  m_ObjectHideFlags: 0
  m_CorrespondingSourceObject: {fileID: 0}
  m_PrefabInstance: {fileID: 0}
  m_PrefabAsset: {fileID: 0}
  m_GameObject: {fileID: 6797209037630218773}
  serializedVersion: 2
  m_LocalRotation: {x: 0.17752333, y: 0.0012897, z: 0.0071470207, w: 0.9840898}
  m_LocalPosition: {x: 0.0000000017881393, y: 0.23016246, z: -0.0000000023841857}
  m_LocalScale: {x: 0.99999994, y: 1, z: 1.0000001}
  m_ConstrainProportionsScale: 0
  m_Children:
  - {fileID: 7511601353257756877}
  m_Father: {fileID: 451890390913213787}
  m_LocalEulerAnglesHint: {x: 0, y: 0, z: 0}
--- !u!1 &6858344997007012316
GameObject:
  m_ObjectHideFlags: 0
  m_CorrespondingSourceObject: {fileID: 0}
  m_PrefabInstance: {fileID: 0}
  m_PrefabAsset: {fileID: 0}
  serializedVersion: 6
  m_Component:
  - component: {fileID: 4725826864795375917}
  m_Layer: 0
  m_Name: RightArm
  m_TagString: Untagged
  m_Icon: {fileID: 0}
  m_NavMeshLayer: 0
  m_StaticEditorFlags: 0
  m_IsActive: 1
--- !u!4 &4725826864795375917
Transform:
  m_ObjectHideFlags: 0
  m_CorrespondingSourceObject: {fileID: 0}
  m_PrefabInstance: {fileID: 0}
  m_PrefabAsset: {fileID: 0}
  m_GameObject: {fileID: 6858344997007012316}
  serializedVersion: 2
  m_LocalRotation: {x: -0.12810914, y: 0.011622547, z: -0.0018257543, w: 0.99169034}
  m_LocalPosition: {x: 0.0000000014342367, y: 0.30699253, z: -0.00000010833144}
  m_LocalScale: {x: 1, y: 0.99999994, z: 0.99999994}
  m_ConstrainProportionsScale: 0
  m_Children:
  - {fileID: 27893225390202865}
  m_Father: {fileID: 2321687145592697401}
  m_LocalEulerAnglesHint: {x: 0, y: 0, z: 0}
--- !u!1 &7022988686894655951
GameObject:
  m_ObjectHideFlags: 0
  m_CorrespondingSourceObject: {fileID: 0}
  m_PrefabInstance: {fileID: 0}
  m_PrefabAsset: {fileID: 0}
  serializedVersion: 6
  m_Component:
  - component: {fileID: 7628950411471437974}
  m_Layer: 0
  m_Name: LeftHandThumb2
  m_TagString: Untagged
  m_Icon: {fileID: 0}
  m_NavMeshLayer: 0
  m_StaticEditorFlags: 0
  m_IsActive: 1
--- !u!4 &7628950411471437974
Transform:
  m_ObjectHideFlags: 0
  m_CorrespondingSourceObject: {fileID: 0}
  m_PrefabInstance: {fileID: 0}
  m_PrefabAsset: {fileID: 0}
  m_GameObject: {fileID: 7022988686894655951}
  serializedVersion: 2
  m_LocalRotation: {x: 0.000019872059, y: 0.0004983056, z: -0.057615582, w: 0.99833876}
  m_LocalPosition: {x: 0.007533889, y: 0.076816745, z: -0.00000007390976}
  m_LocalScale: {x: 1.0000001, y: 1, z: 0.9999999}
  m_ConstrainProportionsScale: 0
  m_Children:
  - {fileID: 2951159179084323893}
  m_Father: {fileID: 857371296839266856}
  m_LocalEulerAnglesHint: {x: 0, y: 0, z: 0}
--- !u!1 &7070546533493493482
GameObject:
  m_ObjectHideFlags: 0
  m_CorrespondingSourceObject: {fileID: 0}
  m_PrefabInstance: {fileID: 0}
  m_PrefabAsset: {fileID: 0}
  serializedVersion: 6
  m_Component:
  - component: {fileID: 7799214775394463656}
  m_Layer: 0
  m_Name: RightLeg
  m_TagString: Untagged
  m_Icon: {fileID: 0}
  m_NavMeshLayer: 0
  m_StaticEditorFlags: 0
  m_IsActive: 1
--- !u!4 &7799214775394463656
Transform:
  m_ObjectHideFlags: 0
  m_CorrespondingSourceObject: {fileID: 0}
  m_PrefabInstance: {fileID: 0}
  m_PrefabAsset: {fileID: 0}
  m_GameObject: {fileID: 7070546533493493482}
  serializedVersion: 2
  m_LocalRotation: {x: -0.05170948, y: 0.0006462751, z: -0.028350767, w: 0.9982595}
  m_LocalPosition: {x: -0.000000007725321, y: 0.6246681, z: -0.0000000020116566}
  m_LocalScale: {x: 1, y: 0.9999999, z: 0.99999994}
  m_ConstrainProportionsScale: 0
  m_Children:
  - {fileID: 451890390913213787}
  m_Father: {fileID: 3082353819072236532}
  m_LocalEulerAnglesHint: {x: 0, y: 0, z: 0}
--- !u!1 &7151744276622885146
GameObject:
  m_ObjectHideFlags: 0
  m_CorrespondingSourceObject: {fileID: 0}
  m_PrefabInstance: {fileID: 0}
  m_PrefabAsset: {fileID: 0}
  serializedVersion: 6
  m_Component:
  - component: {fileID: 648342789709412707}
  m_Layer: 0
  m_Name: RightHandMiddle4_end
  m_TagString: Untagged
  m_Icon: {fileID: 0}
  m_NavMeshLayer: 0
  m_StaticEditorFlags: 0
  m_IsActive: 1
--- !u!4 &648342789709412707
Transform:
  m_ObjectHideFlags: 0
  m_CorrespondingSourceObject: {fileID: 0}
  m_PrefabInstance: {fileID: 0}
  m_PrefabAsset: {fileID: 0}
  m_GameObject: {fileID: 7151744276622885146}
  serializedVersion: 2
  m_LocalRotation: {x: 0, y: -0, z: -0, w: 1}
  m_LocalPosition: {x: -0, y: 0.053089067, z: 0}
  m_LocalScale: {x: 1, y: 1, z: 1}
  m_ConstrainProportionsScale: 0
  m_Children: []
  m_Father: {fileID: 1485247588464446640}
  m_LocalEulerAnglesHint: {x: 0, y: 0, z: 0}
--- !u!1 &7309794304350035228
GameObject:
  m_ObjectHideFlags: 0
  m_CorrespondingSourceObject: {fileID: 0}
  m_PrefabInstance: {fileID: 0}
  m_PrefabAsset: {fileID: 0}
  serializedVersion: 6
  m_Component:
  - component: {fileID: 3433680506655300509}
  m_Layer: 0
  m_Name: RightHandThumb2
  m_TagString: Untagged
  m_Icon: {fileID: 0}
  m_NavMeshLayer: 0
  m_StaticEditorFlags: 0
  m_IsActive: 1
--- !u!4 &3433680506655300509
Transform:
  m_ObjectHideFlags: 0
  m_CorrespondingSourceObject: {fileID: 0}
  m_PrefabInstance: {fileID: 0}
  m_PrefabAsset: {fileID: 0}
  m_GameObject: {fileID: 7309794304350035228}
  serializedVersion: 2
  m_LocalRotation: {x: 0.000008036453, y: -0.0002043857, z: 0.040484767, w: 0.99918014}
  m_LocalPosition: {x: -0.005962806, y: 0.07670963, z: -0.00000010848045}
  m_LocalScale: {x: 0.9999999, y: 0.9999999, z: 0.9999999}
  m_ConstrainProportionsScale: 0
  m_Children:
  - {fileID: 486288827801925930}
  m_Father: {fileID: 7534102800640064908}
  m_LocalEulerAnglesHint: {x: 0, y: 0, z: 0}
--- !u!1 &7342153730034192132
GameObject:
  m_ObjectHideFlags: 0
  m_CorrespondingSourceObject: {fileID: 0}
  m_PrefabInstance: {fileID: 0}
  m_PrefabAsset: {fileID: 0}
  serializedVersion: 6
  m_Component:
  - component: {fileID: 3765262521901714351}
  m_Layer: 0
  m_Name: LeftHandRing4_end
  m_TagString: Untagged
  m_Icon: {fileID: 0}
  m_NavMeshLayer: 0
  m_StaticEditorFlags: 0
  m_IsActive: 1
--- !u!4 &3765262521901714351
Transform:
  m_ObjectHideFlags: 0
  m_CorrespondingSourceObject: {fileID: 0}
  m_PrefabInstance: {fileID: 0}
  m_PrefabAsset: {fileID: 0}
  m_GameObject: {fileID: 7342153730034192132}
  serializedVersion: 2
  m_LocalRotation: {x: 0, y: -0, z: -0, w: 1}
  m_LocalPosition: {x: -0, y: 0.04791628, z: 0}
  m_LocalScale: {x: 1, y: 1, z: 1}
  m_ConstrainProportionsScale: 0
  m_Children: []
  m_Father: {fileID: 5011835719432790193}
  m_LocalEulerAnglesHint: {x: 0, y: 0, z: 0}
--- !u!1 &7529753395088595536
GameObject:
  m_ObjectHideFlags: 0
  m_CorrespondingSourceObject: {fileID: 0}
  m_PrefabInstance: {fileID: 0}
  m_PrefabAsset: {fileID: 0}
  serializedVersion: 6
  m_Component:
  - component: {fileID: 3815099188393395504}
  m_Layer: 0
  m_Name: RightHandMiddle3
  m_TagString: Untagged
  m_Icon: {fileID: 0}
  m_NavMeshLayer: 0
  m_StaticEditorFlags: 0
  m_IsActive: 1
--- !u!4 &3815099188393395504
Transform:
  m_ObjectHideFlags: 0
  m_CorrespondingSourceObject: {fileID: 0}
  m_PrefabInstance: {fileID: 0}
  m_PrefabAsset: {fileID: 0}
  m_GameObject: {fileID: 7529753395088595536}
  serializedVersion: 2
  m_LocalRotation: {x: 0.000000057767185, y: -0.000012587583, z: -0.00039373277, w: 0.99999994}
  m_LocalPosition: {x: -0.0000046516116, y: 0.06301961, z: -0.00000001947861}
  m_LocalScale: {x: 1, y: 0.99999994, z: 0.9999999}
  m_ConstrainProportionsScale: 0
  m_Children:
  - {fileID: 1485247588464446640}
  m_Father: {fileID: 4391270252992242276}
  m_LocalEulerAnglesHint: {x: 0, y: 0, z: 0}
--- !u!1 &7607980946132771518
GameObject:
  m_ObjectHideFlags: 0
  m_CorrespondingSourceObject: {fileID: 0}
  m_PrefabInstance: {fileID: 0}
  m_PrefabAsset: {fileID: 0}
  serializedVersion: 6
  m_Component:
  - component: {fileID: 7812904174132984422}
  m_Layer: 0
  m_Name: LeftArm
  m_TagString: Untagged
  m_Icon: {fileID: 0}
  m_NavMeshLayer: 0
  m_StaticEditorFlags: 0
  m_IsActive: 1
--- !u!4 &7812904174132984422
Transform:
  m_ObjectHideFlags: 0
  m_CorrespondingSourceObject: {fileID: 0}
  m_PrefabInstance: {fileID: 0}
  m_PrefabAsset: {fileID: 0}
  m_GameObject: {fileID: 7607980946132771518}
  serializedVersion: 2
  m_LocalRotation: {x: -0.12800957, y: -0.0095279515, z: -0.005377132, w: 0.9917126}
  m_LocalPosition: {x: 0.000000008940696, y: 0.30699253, z: -0.00000014282763}
  m_LocalScale: {x: 0.99999976, y: 0.99999994, z: 1}
  m_ConstrainProportionsScale: 0
  m_Children:
  - {fileID: 5158134851403621196}
  m_Father: {fileID: 3764804433698073080}
  m_LocalEulerAnglesHint: {x: 0, y: 0, z: 0}
--- !u!1 &7714857968849835738
GameObject:
  m_ObjectHideFlags: 0
  m_CorrespondingSourceObject: {fileID: 0}
  m_PrefabInstance: {fileID: 0}
  m_PrefabAsset: {fileID: 0}
  serializedVersion: 6
  m_Component:
  - component: {fileID: 3805027261472212991}
  m_Layer: 0
  m_Name: RightHandIndex4
  m_TagString: Untagged
  m_Icon: {fileID: 0}
  m_NavMeshLayer: 0
  m_StaticEditorFlags: 0
  m_IsActive: 1
--- !u!4 &3805027261472212991
Transform:
  m_ObjectHideFlags: 0
  m_CorrespondingSourceObject: {fileID: 0}
  m_PrefabInstance: {fileID: 0}
  m_PrefabAsset: {fileID: 0}
  m_GameObject: {fileID: 7714857968849835738}
  serializedVersion: 2
  m_LocalRotation: {x: 0.000000005696619, y: 0.00000010786391, z: 0.000000090500706, w: 1}
  m_LocalPosition: {x: 0.00013296932, y: 0.049068607, z: 0.00000011953293}
  m_LocalScale: {x: 1.0000001, y: 1.0000001, z: 1.0000001}
  m_ConstrainProportionsScale: 0
  m_Children:
  - {fileID: 3727165101371490064}
  m_Father: {fileID: 2196357522098856048}
  m_LocalEulerAnglesHint: {x: 0, y: 0, z: 0}
--- !u!1 &7815291988959100904
GameObject:
  m_ObjectHideFlags: 0
  m_CorrespondingSourceObject: {fileID: 0}
  m_PrefabInstance: {fileID: 0}
  m_PrefabAsset: {fileID: 0}
  serializedVersion: 6
  m_Component:
  - component: {fileID: 7514535403211889886}
  m_Layer: 0
  m_Name: Head_end
  m_TagString: Untagged
  m_Icon: {fileID: 0}
  m_NavMeshLayer: 0
  m_StaticEditorFlags: 0
  m_IsActive: 1
--- !u!4 &7514535403211889886
Transform:
  m_ObjectHideFlags: 0
  m_CorrespondingSourceObject: {fileID: 0}
  m_PrefabInstance: {fileID: 0}
  m_PrefabAsset: {fileID: 0}
  m_GameObject: {fileID: 7815291988959100904}
  serializedVersion: 2
  m_LocalRotation: {x: 0, y: -0, z: -0, w: 1}
  m_LocalPosition: {x: -0, y: 0.73742765, z: 0}
  m_LocalScale: {x: 1, y: 1, z: 1}
  m_ConstrainProportionsScale: 0
  m_Children: []
  m_Father: {fileID: 800706441381344363}
  m_LocalEulerAnglesHint: {x: 0, y: 0, z: 0}
--- !u!1 &7852420969520624701
GameObject:
  m_ObjectHideFlags: 0
  m_CorrespondingSourceObject: {fileID: 0}
  m_PrefabInstance: {fileID: 0}
  m_PrefabAsset: {fileID: 0}
  serializedVersion: 6
  m_Component:
  - component: {fileID: 7534102800640064908}
  m_Layer: 0
  m_Name: RightHandThumb1
  m_TagString: Untagged
  m_Icon: {fileID: 0}
  m_NavMeshLayer: 0
  m_StaticEditorFlags: 0
  m_IsActive: 1
--- !u!4 &7534102800640064908
Transform:
  m_ObjectHideFlags: 0
  m_CorrespondingSourceObject: {fileID: 0}
  m_PrefabInstance: {fileID: 0}
  m_PrefabAsset: {fileID: 0}
  m_GameObject: {fileID: 7852420969520624701}
  serializedVersion: 2
  m_LocalRotation: {x: 0.21258725, y: 0.10007755, z: 0.26840383, w: 0.9342112}
  m_LocalPosition: {x: -0.069167085, y: 0.06680906, z: -0.0015290595}
  m_LocalScale: {x: 0.99999994, y: 0.99999994, z: 1}
  m_ConstrainProportionsScale: 0
  m_Children:
  - {fileID: 3433680506655300509}
  m_Father: {fileID: 668614690749546428}
  m_LocalEulerAnglesHint: {x: 0, y: 0, z: 0}
--- !u!1 &8129298567943090918
GameObject:
  m_ObjectHideFlags: 0
  m_CorrespondingSourceObject: {fileID: 0}
  m_PrefabInstance: {fileID: 0}
  m_PrefabAsset: {fileID: 0}
  serializedVersion: 6
  m_Component:
  - component: {fileID: 3395971414792663118}
  m_Layer: 0
  m_Name: LeftHandMiddle1
  m_TagString: Untagged
  m_Icon: {fileID: 0}
  m_NavMeshLayer: 0
  m_StaticEditorFlags: 0
  m_IsActive: 1
--- !u!4 &3395971414792663118
Transform:
  m_ObjectHideFlags: 0
  m_CorrespondingSourceObject: {fileID: 0}
  m_PrefabInstance: {fileID: 0}
  m_PrefabAsset: {fileID: 0}
  m_GameObject: {fileID: 8129298567943090918}
  serializedVersion: 2
  m_LocalRotation: {x: -0.00051656505, y: 0.000045859666, z: -0.053535834, w: 0.9985658}
  m_LocalPosition: {x: 0.024180526, y: 0.225503, z: -0.00023444083}
  m_LocalScale: {x: 0.99999994, y: 1.0000001, z: 0.99999994}
  m_ConstrainProportionsScale: 0
  m_Children:
  - {fileID: 3840293921996771007}
  m_Father: {fileID: 3642598216678676158}
  m_LocalEulerAnglesHint: {x: 0, y: 0, z: 0}
--- !u!1 &8203209173629155905
GameObject:
  m_ObjectHideFlags: 0
  m_CorrespondingSourceObject: {fileID: 0}
  m_PrefabInstance: {fileID: 0}
  m_PrefabAsset: {fileID: 0}
  serializedVersion: 6
  m_Component:
  - component: {fileID: 7850902064473741956}
  m_Layer: 0
  m_Name: Neck
  m_TagString: Untagged
  m_Icon: {fileID: 0}
  m_NavMeshLayer: 0
  m_StaticEditorFlags: 0
  m_IsActive: 1
--- !u!4 &7850902064473741956
Transform:
  m_ObjectHideFlags: 0
  m_CorrespondingSourceObject: {fileID: 0}
  m_PrefabInstance: {fileID: 0}
  m_PrefabAsset: {fileID: 0}
  m_GameObject: {fileID: 8203209173629155905}
  serializedVersion: 2
  m_LocalRotation: {x: 0.011799242, y: 3.9946328e-14, z: 2.2786078e-13, w: 0.9999304}
  m_LocalPosition: {x: 8.834683e-12, y: 0.37070262, z: 0.000000004768374}
  m_LocalScale: {x: 1, y: 1, z: 0.99999994}
  m_ConstrainProportionsScale: 0
  m_Children:
  - {fileID: 800706441381344363}
  m_Father: {fileID: 8212265297738809059}
  m_LocalEulerAnglesHint: {x: 0, y: 0, z: 0}
--- !u!1 &8323616242157963414
GameObject:
  m_ObjectHideFlags: 0
  m_CorrespondingSourceObject: {fileID: 0}
  m_PrefabInstance: {fileID: 0}
  m_PrefabAsset: {fileID: 0}
  serializedVersion: 6
  m_Component:
  - component: {fileID: 8703413484866441772}
  - component: {fileID: 3326067372547295318}
  m_Layer: 0
  m_Name: character2 (1)
  m_TagString: Untagged
  m_Icon: {fileID: 0}
  m_NavMeshLayer: 0
  m_StaticEditorFlags: 0
  m_IsActive: 1
--- !u!4 &8703413484866441772
Transform:
  m_ObjectHideFlags: 0
  m_CorrespondingSourceObject: {fileID: 0}
  m_PrefabInstance: {fileID: 0}
  m_PrefabAsset: {fileID: 0}
  m_GameObject: {fileID: 8323616242157963414}
  serializedVersion: 2
  m_LocalRotation: {x: 0, y: 0, z: 0, w: 1}
  m_LocalPosition: {x: 0, y: 0, z: 0}
  m_LocalScale: {x: 0.5, y: 0.5, z: 0.5}
  m_ConstrainProportionsScale: 1
  m_Children:
  - {fileID: 322122965361935026}
  - {fileID: 5119628482088361201}
  - {fileID: 196111300347383117}
  m_Father: {fileID: 0}
  m_LocalEulerAnglesHint: {x: 0, y: 0, z: 0}
--- !u!95 &3326067372547295318
Animator:
  serializedVersion: 5
  m_ObjectHideFlags: 0
  m_CorrespondingSourceObject: {fileID: 0}
  m_PrefabInstance: {fileID: 0}
  m_PrefabAsset: {fileID: 0}
  m_GameObject: {fileID: 8323616242157963414}
  m_Enabled: 1
  m_Avatar: {fileID: 9000000, guid: 2d226e59912d0014fbf2646ed5c4b916, type: 3}
  m_Controller: {fileID: 9100000, guid: db89efbdf975fba499a501093727e9b5, type: 2}
  m_CullingMode: 1
  m_UpdateMode: 0
  m_ApplyRootMotion: 1
  m_LinearVelocityBlending: 0
  m_StabilizeFeet: 0
  m_WarningMessage: 
  m_HasTransformHierarchy: 1
  m_AllowConstantClipSamplingOptimization: 1
  m_KeepAnimatorStateOnDisable: 0
  m_WriteDefaultValuesOnDisable: 0
--- !u!1 &8374540511712883515
GameObject:
  m_ObjectHideFlags: 0
  m_CorrespondingSourceObject: {fileID: 0}
  m_PrefabInstance: {fileID: 0}
  m_PrefabAsset: {fileID: 0}
  serializedVersion: 6
  m_Component:
  - component: {fileID: 5525267034130997601}
  m_Layer: 0
  m_Name: Hips
  m_TagString: Untagged
  m_Icon: {fileID: 0}
  m_NavMeshLayer: 0
  m_StaticEditorFlags: 0
  m_IsActive: 1
--- !u!4 &5525267034130997601
Transform:
  m_ObjectHideFlags: 0
  m_CorrespondingSourceObject: {fileID: 0}
  m_PrefabInstance: {fileID: 0}
  m_PrefabAsset: {fileID: 0}
  m_GameObject: {fileID: 8374540511712883515}
  serializedVersion: 2
  m_LocalRotation: {x: -0.00000011729626, y: -0.0000018587119, z: 0.00005618605, w: 1}
  m_LocalPosition: {x: -0.000027079443, y: 1.384805, z: -0.003740909}
  m_LocalScale: {x: 1, y: 1, z: 1}
  m_ConstrainProportionsScale: 0
  m_Children:
  - {fileID: 6633032826763670571}
  - {fileID: 3082353819072236532}
  - {fileID: 9194755753543043402}
  m_Father: {fileID: 322122965361935026}
  m_LocalEulerAnglesHint: {x: 0, y: 0, z: 0}
--- !u!1 &8435232421739577402
GameObject:
  m_ObjectHideFlags: 0
  m_CorrespondingSourceObject: {fileID: 0}
  m_PrefabInstance: {fileID: 0}
  m_PrefabAsset: {fileID: 0}
  serializedVersion: 6
  m_Component:
  - component: {fileID: 8162836850509416647}
  m_Layer: 0
  m_Name: LeftToeBase
  m_TagString: Untagged
  m_Icon: {fileID: 0}
  m_NavMeshLayer: 0
  m_StaticEditorFlags: 0
  m_IsActive: 1
--- !u!4 &8162836850509416647
Transform:
  m_ObjectHideFlags: 0
  m_CorrespondingSourceObject: {fileID: 0}
  m_PrefabInstance: {fileID: 0}
  m_PrefabAsset: {fileID: 0}
  m_GameObject: {fileID: 8435232421739577402}
  serializedVersion: 2
  m_LocalRotation: {x: 0.18818904, y: -0.0015895613, z: -0.008299756, w: 0.9820965}
  m_LocalPosition: {x: -0.000000008940696, y: 0.21767727, z: -0.0000000023841857}
  m_LocalScale: {x: 1, y: 1, z: 0.99999976}
  m_ConstrainProportionsScale: 0
  m_Children:
  - {fileID: 6648785346304879476}
  m_Father: {fileID: 2984917625692832915}
  m_LocalEulerAnglesHint: {x: 0, y: 0, z: 0}
--- !u!1 &8612049108769648177
GameObject:
  m_ObjectHideFlags: 0
  m_CorrespondingSourceObject: {fileID: 0}
  m_PrefabInstance: {fileID: 0}
  m_PrefabAsset: {fileID: 0}
  serializedVersion: 6
  m_Component:
  - component: {fileID: 2321687145592697401}
  m_Layer: 0
  m_Name: RightShoulder
  m_TagString: Untagged
  m_Icon: {fileID: 0}
  m_NavMeshLayer: 0
  m_StaticEditorFlags: 0
  m_IsActive: 1
--- !u!4 &2321687145592697401
Transform:
  m_ObjectHideFlags: 0
  m_CorrespondingSourceObject: {fileID: 0}
  m_PrefabInstance: {fileID: 0}
  m_PrefabAsset: {fileID: 0}
  m_GameObject: {fileID: 8612049108769648177}
  serializedVersion: 2
  m_LocalRotation: {x: 0.56010747, y: 0.43166685, z: -0.55976975, w: 0.43197364}
  m_LocalPosition: {x: 0.14568385, y: 0.3302788, z: 0.00006409644}
  m_LocalScale: {x: 1, y: 1, z: 1}
  m_ConstrainProportionsScale: 0
  m_Children:
  - {fileID: 4725826864795375917}
  m_Father: {fileID: 8212265297738809059}
  m_LocalEulerAnglesHint: {x: 0, y: 0, z: 0}
--- !u!1 &8767029666316538388
GameObject:
  m_ObjectHideFlags: 0
  m_CorrespondingSourceObject: {fileID: 0}
  m_PrefabInstance: {fileID: 0}
  m_PrefabAsset: {fileID: 0}
  serializedVersion: 6
  m_Component:
  - component: {fileID: 8944771123585873871}
  m_Layer: 0
  m_Name: RightHandPinky1
  m_TagString: Untagged
  m_Icon: {fileID: 0}
  m_NavMeshLayer: 0
  m_StaticEditorFlags: 0
  m_IsActive: 1
--- !u!4 &8944771123585873871
Transform:
  m_ObjectHideFlags: 0
  m_CorrespondingSourceObject: {fileID: 0}
  m_PrefabInstance: {fileID: 0}
  m_PrefabAsset: {fileID: 0}
  m_GameObject: {fileID: 8767029666316538388}
  serializedVersion: 2
  m_LocalRotation: {x: 0.002624289, y: -0.0060028033, z: 0.05332744, w: 0.9985556}
  m_LocalPosition: {x: 0.07161813, y: 0.20491876, z: -0.0019831148}
  m_LocalScale: {x: 0.9999999, y: 0.99999994, z: 0.99999994}
  m_ConstrainProportionsScale: 0
  m_Children:
  - {fileID: 8562258667841333610}
  m_Father: {fileID: 668614690749546428}
  m_LocalEulerAnglesHint: {x: 0, y: 0, z: 0}
--- !u!1 &8792677790159511615
GameObject:
  m_ObjectHideFlags: 0
  m_CorrespondingSourceObject: {fileID: 0}
  m_PrefabInstance: {fileID: 0}
  m_PrefabAsset: {fileID: 0}
  serializedVersion: 6
  m_Component:
  - component: {fileID: 2243745219765718476}
  m_Layer: 0
  m_Name: RightHandMiddle1
  m_TagString: Untagged
  m_Icon: {fileID: 0}
  m_NavMeshLayer: 0
  m_StaticEditorFlags: 0
  m_IsActive: 1
--- !u!4 &2243745219765718476
Transform:
  m_ObjectHideFlags: 0
  m_CorrespondingSourceObject: {fileID: 0}
  m_PrefabInstance: {fileID: 0}
  m_PrefabAsset: {fileID: 0}
  m_GameObject: {fileID: 8792677790159511615}
  serializedVersion: 2
  m_LocalRotation: {x: 0.0023071123, y: -0.000044733966, z: 0.05362342, w: 0.9985586}
  m_LocalPosition: {x: -0.024347674, y: 0.22773363, z: 0.0010543268}
  m_LocalScale: {x: 0.9999999, y: 0.99999994, z: 0.99999994}
  m_ConstrainProportionsScale: 0
  m_Children:
  - {fileID: 4391270252992242276}
  m_Father: {fileID: 668614690749546428}
  m_LocalEulerAnglesHint: {x: 0, y: 0, z: 0}
--- !u!1 &9217195146373301563
GameObject:
  m_ObjectHideFlags: 0
  m_CorrespondingSourceObject: {fileID: 0}
  m_PrefabInstance: {fileID: 0}
  m_PrefabAsset: {fileID: 0}
  serializedVersion: 6
  m_Component:
  - component: {fileID: 5011835719432790193}
  m_Layer: 0
  m_Name: LeftHandRing4
  m_TagString: Untagged
  m_Icon: {fileID: 0}
  m_NavMeshLayer: 0
  m_StaticEditorFlags: 0
  m_IsActive: 1
--- !u!4 &5011835719432790193
Transform:
  m_ObjectHideFlags: 0
  m_CorrespondingSourceObject: {fileID: 0}
  m_PrefabInstance: {fileID: 0}
  m_PrefabAsset: {fileID: 0}
  m_GameObject: {fileID: 9217195146373301563}
  serializedVersion: 2
  m_LocalRotation: {x: 0.000000014245118, y: 0.000000007974437, z: 0.00000000848207, w: 1}
  m_LocalPosition: {x: -0.0000003252468, y: 0.047916073, z: 0.00000009854437}
  m_LocalScale: {x: 1.0000001, y: 0.99999994, z: 1}
  m_ConstrainProportionsScale: 0
  m_Children:
  - {fileID: 3765262521901714351}
  m_Father: {fileID: 3729379650512242067}
  m_LocalEulerAnglesHint: {x: 0, y: 0, z: 0}
